<svg width="75" height="66" viewBox="0 0 75 66" fill="none" xmlns="http://www.w3.org/2000/svg">
<path d="M55.0025 18.2679C53.1186 16.3827 50.7904 15.1292 48.2689 14.498C44.3568 13.5171 40.7086 14.1005 37.3837 16.0632L44.7264 23.4067C46.4473 25.1276 43.8218 27.6392 42.1578 25.9752L34.4517 18.2683C32.7097 20.0103 29.5048 25.3715 28.2524 27.4812L34.4521 33.6807C36.173 35.4015 33.5475 37.9131 31.8835 36.2492L26.3559 30.7217C24.9486 33.1743 23.4429 35.8417 20.8451 40.6258L24.176 43.9566C25.8969 45.6774 23.2714 48.189 21.6074 46.5251L19.0449 43.9626C15.8562 49.9063 12.4439 56.9565 10.2001 61.3589C9.58419 62.5631 10.4652 64 11.8177 64C12.944 64 35.1014 51.2769 36.0829 50.7244L31.9988 46.6404C30.3101 44.9517 32.8647 42.3693 34.5674 44.0718L39.3606 48.865C44.0631 46.175 47.0243 44.3691 49.0147 43.106L42.2731 36.3646C40.5844 34.6759 43.1391 32.0935 44.8417 33.7961L52.1126 41.0668C56.3084 38.1752 58.6853 35.0731 59.1325 29.7779C59.4939 25.2211 57.8099 21.0761 55.0025 18.2679Z" fill="#FFB635"/>
<path d="M66.7865 14.0993C68.3404 11.9689 68.1577 8.95526 66.2366 7.03411C64.2942 5.08995 61.2289 4.9232 59.0914 6.54453C58.6586 3.96898 56.4129 2 53.7166 2C50.7117 2 48.2673 4.4444 48.2673 7.44922V10.7253C51.77 11.4136 54.9903 13.1188 57.5695 15.6993C60.2043 18.3348 61.8513 21.5867 62.5255 24.9942L66.5541 24.9907C69.5679 24.9907 72.0036 22.5517 72 19.538C71.9964 16.594 69.678 14.2157 66.7865 14.0993Z" fill="#FFB635"/>
</svg>
