<svg width="44" height="41" viewBox="0 0 44 41" fill="none" xmlns="http://www.w3.org/2000/svg">
<path d="M6.19854 31.4685V31.2692L5.99926 31.2685C2.79969 31.2571 0.2 28.6507 0.2 25.4486V6.01993C0.2 2.81055 2.81106 0.2 6.01993 0.2H37.7672C40.976 0.2 43.5871 2.81055 43.5871 6.01993V25.4486C43.5871 28.6574 40.976 31.2685 37.7672 31.2685H18.6689H18.6061L18.5546 31.3043L6.19854 39.9022V31.4685ZM6.01993 29.1029H8.3642V35.3742V35.757L8.67843 35.5383L17.9266 29.1029H37.7672C39.7824 29.1029 41.4215 27.4635 41.4215 25.4486V6.01993C41.4215 4.00446 39.7824 2.36565 37.7672 2.36565H6.01993C4.00475 2.36565 2.36565 4.00446 2.36565 6.01993V25.4486C2.36565 27.4635 4.00473 29.1029 6.01993 29.1029Z" fill="#FFB635" stroke="white" stroke-width="0.4"/>
<path d="M11.9194 9.26543H31.8677V11.4311H11.9194V9.26543Z" fill="#FFB635" stroke="white" stroke-width="0.4"/>
<path d="M11.9194 14.7388H31.8677V16.9045H11.9194V14.7388Z" fill="#FFB635" stroke="white" stroke-width="0.4"/>
<path d="M11.9194 20.2122H31.8677V22.3779H11.9194V20.2122Z" fill="#FFB635" stroke="white" stroke-width="0.4"/>
</svg>
