<svg width="49" height="34" viewBox="0 0 49 34" fill="none" xmlns="http://www.w3.org/2000/svg">
<path d="M40.1811 8.24007L40.1811 8.24011L48.4163 16.749C48.6304 16.9701 48.75 17.2657 48.75 17.5735V27.5577C48.75 28.2125 48.2192 28.7433 47.5645 28.7433H45.4205H45.2351L45.1813 28.9207C44.9193 29.7844 44.4485 30.5975 43.7668 31.2792C42.6937 32.3523 41.2684 32.9427 39.7509 32.9427C38.2334 32.9427 36.8079 32.3523 35.7349 31.2792L35.5581 31.456L35.7349 31.2792C35.0532 30.5975 34.5824 29.7844 34.3205 28.9207L34.2666 28.7433H34.0812H20.3722H20.1868L20.133 28.9207C19.871 29.7844 19.4003 30.5975 18.7186 31.2792C17.6454 32.3523 16.2201 32.9427 14.7026 32.9427C13.1851 32.9427 11.7596 32.3523 10.6866 31.2792L10.5098 31.456L10.6866 31.2792C10.0125 30.6051 9.52944 29.7922 9.26309 28.9055L9.20959 28.7275H9.02366H5.96795C5.31322 28.7275 4.7824 28.1967 4.7824 27.5419V14.3582V14.1082H4.5324H1.43555C0.780813 14.1082 0.25 13.5773 0.25 12.9226C0.25 12.2679 0.780813 11.7371 1.43555 11.7371H4.5324H4.7824V11.4871V8.61462V8.36462H4.5324H3.44579C2.79106 8.36462 2.26024 7.83381 2.26024 7.17907C2.26024 6.52434 2.79106 5.99353 3.44579 5.99353H4.5324H4.7824V5.74353V1.43555C4.7824 0.780813 5.31322 0.25 5.96795 0.25H32.6313C33.2861 0.25 33.8169 0.780813 33.8169 1.43555V7.62907V7.87907H34.0669H39.3293C39.6504 7.87907 39.9579 8.00934 40.1811 8.24007ZM44.1773 16.3879H44.7672L44.357 15.9641L38.9006 10.3263L38.8269 10.2502H38.7209H34.0266H33.7766V10.5002V16.1379V16.3879H34.0266H44.1773ZM7.4035 14.1081H7.1535V14.3581V26.1062V26.3562H7.4035H8.88537H9.09098L9.13067 26.1544C9.34586 25.0603 9.87937 24.0541 10.6866 23.2469C11.7597 22.1738 13.1851 21.5834 14.7026 21.5834C16.2201 21.5834 17.6455 22.1738 18.7186 23.2469C19.547 24.0754 20.0652 25.0979 20.2737 26.1697L20.3131 26.372H20.5191H31.1554H31.405L31.4054 26.1224L31.4457 2.87143L31.4461 2.621H31.1957H15.9283H7.4035H7.1535V2.871V5.74343V5.99343H7.4035H15.9283C16.5831 5.99343 17.1139 6.52425 17.1139 7.17898C17.1139 7.83371 16.5831 8.36453 15.9283 8.36453H7.4035H7.1535V8.61453V11.487V11.737H7.4035H14.8753C15.5301 11.737 16.0609 12.2678 16.0609 12.9225C16.0609 13.5772 15.5301 14.1081 14.8753 14.1081H7.4035ZM37.4113 24.9237L37.5881 25.1004L37.4113 24.9237C36.1212 26.2139 36.1212 28.3124 37.4113 29.6026L37.5881 29.4258L37.4113 29.6026C38.0358 30.2272 38.8675 30.5716 39.7507 30.5716C40.6338 30.5716 41.4655 30.2272 42.0901 29.6026C42.7146 28.9781 43.0591 28.1464 43.059 27.2632C43.059 26.38 42.7146 25.5482 42.0901 24.9237C41.4655 24.2991 40.6338 23.9547 39.7507 23.9547C38.8675 23.9547 38.0358 24.2991 37.4113 24.9237ZM17.042 29.6026L16.8652 29.4258L17.042 29.6026C18.3321 28.3124 18.3321 26.2138 17.042 24.9236L16.8652 25.1003L17.042 24.9236C16.4174 24.299 15.5857 23.9546 14.7026 23.9546C13.8195 23.9546 12.9878 24.299 12.3632 24.9236C11.7386 25.5481 11.3942 26.3798 11.3942 27.2631C11.3942 28.1464 11.7386 28.9781 12.3632 29.6026C12.9878 30.2272 13.8195 30.5716 14.7026 30.5716C15.5857 30.5716 16.4174 30.2272 17.042 29.6026ZM45.3219 26.1698L45.3613 26.3721H45.5673H46.1289H46.3789V26.1221V19.009V18.759H46.1289H34.0265H33.7765V19.009V25.7276L34.2681 25.7919C34.5166 24.8589 35.0043 23.9774 35.7347 23.247C36.8078 22.1738 38.2332 21.5835 39.7507 21.5835C41.2682 21.5835 42.6936 22.1738 43.7666 23.247L43.9434 23.0702L43.7667 23.247C44.5952 24.0755 45.1134 25.098 45.3219 26.1698Z" fill="#FFB635" stroke="white" stroke-width="0.5"/>
</svg>
