<svg width="52" height="52" viewBox="0 0 52 52" fill="none" xmlns="http://www.w3.org/2000/svg">
<path d="M44.8281 28.8125H7.17188C6.80141 28.8125 6.45282 28.9877 6.23172 29.2848C6.01055 29.5821 5.94297 29.9663 6.04946 30.3212L6.88993 33.1228C7.40071 34.8252 8.42438 36.2859 9.8504 37.3469C11.2764 38.4079 12.9697 38.9688 14.7471 38.9688H37.2529C39.0303 38.9688 40.7236 38.4079 42.1496 37.3469C43.5756 36.2859 44.5993 34.8252 45.1101 33.1228L45.9506 30.3212C46.057 29.9663 45.9895 29.5821 45.7684 29.2848C45.5472 28.9877 45.1985 28.8125 44.8281 28.8125Z" fill="#FFB635"/>
<path d="M13.8906 41.3125V42.875C13.8906 43.5222 14.4153 44.0469 15.0625 44.0469H36.9375C37.5847 44.0469 38.1094 43.5222 38.1094 42.875V41.3125H13.8906Z" fill="#FFB635"/>
<path d="M28.4151 26.4688C28.5711 25.9225 28.6564 25.3463 28.6564 24.75C28.6564 21.2982 25.8582 18.5 22.4064 18.5C20.7478 18.5 19.2411 19.1468 18.1226 20.2013L24.39 26.4688H28.4151Z" fill="#FFB635"/>
<path d="M13.8051 26.4686V23.1996L10.5361 26.4686H13.8051Z" fill="#FFB635"/>
<path d="M12.1479 21.5426H6C6.20086 23.0893 6.80102 24.5939 7.80039 25.89L12.1479 21.5426Z" fill="#FFB635"/>
<path d="M13.8054 19.1988L9.46539 14.8588C8.95641 14.3498 8.1168 14.4186 7.68898 14.9975C6.75594 16.26 6.1932 17.71 6 19.1988H13.8054Z" fill="#FFB635"/>
<path d="M16.1489 21.5426V26.4689H21.0752L16.1489 21.5426Z" fill="#FFB635"/>
<path d="M45.9999 18.5C45.9999 15.6357 43.9339 13.2448 41.2139 12.7391C40.7083 10.0191 38.3173 7.95312 35.453 7.95312C32.5887 7.95312 30.1978 10.0191 29.6922 12.7391C27.5938 13.1292 25.8857 14.6419 25.2141 16.6278C28.5779 17.794 30.9999 20.9943 30.9999 24.75C30.9999 25.3272 30.9406 25.9028 30.825 26.4688H34.2811V22.2521L31.0905 20.125C30.552 19.766 30.4065 19.0384 30.7655 18.4999C31.1245 17.9614 31.8521 17.8159 32.3906 18.1749L34.2811 19.4354V14.6269C34.2811 13.9959 34.7661 13.4529 35.3964 13.4232C36.0693 13.3915 36.6249 13.9277 36.6249 14.5938V19.4354L38.5154 18.175C39.054 17.816 39.7815 17.9615 40.1405 18.5C40.4995 19.0385 40.354 19.7661 39.8155 20.1251L36.6249 22.2521V26.4688H44.1382C44.3366 25.9196 44.4374 25.3437 44.4374 24.75C44.4374 24.0923 44.3104 23.4493 44.0649 22.8477C45.2922 21.7484 45.9999 20.1886 45.9999 18.5Z" fill="#FFB635"/>
</svg>
