<svg width="37" height="36" viewBox="0 0 37 36" fill="none" xmlns="http://www.w3.org/2000/svg">
<path d="M18.5594 10.9595C16.8429 10.9595 15.4466 12.3558 15.4466 14.0723C15.4466 14.5385 15.5568 14.9768 15.7412 15.3741C8.83712 16.6447 3.45372 22.6239 2.97885 29.7745H34.1399C33.6651 22.6239 28.2817 16.6447 21.3776 15.3741C21.562 14.9768 21.6722 14.5385 21.6722 14.0723C21.6722 12.3558 20.2758 10.9595 18.5594 10.9595Z" fill="#FFB635"/>
<path d="M24.785 2.65869H34.1233V0.583496H24.785C23.0685 0.583496 21.6722 1.97982 21.6722 3.69628C21.6722 5.41274 23.0685 6.80907 24.785 6.80907H28.9354C29.5078 6.80907 29.9729 7.27419 29.9729 7.84667C29.9729 8.41914 29.5078 8.88426 28.9354 8.88426H26.8602C25.1437 8.88426 23.7474 10.2806 23.7474 11.9971V13.0346H25.8226V11.9971C25.8226 11.4246 26.2877 10.9595 26.8602 10.9595H28.9354C30.6518 10.9595 32.0481 9.56313 32.0481 7.84667C32.0481 6.13021 30.6518 4.73388 28.9354 4.73388H24.785C24.2125 4.73388 23.7474 4.26876 23.7474 3.69628C23.7474 3.12381 24.2125 2.65869 24.785 2.65869Z" fill="#FFB635"/>
<path d="M0.851074 33.9248H4.36009L5.39768 36H31.7211L32.7587 33.9248H36.2677V31.8496H0.851074V33.9248Z" fill="#FFB635"/>
</svg>
