<svg width="8" height="15" viewBox="0 0 8 15" fill="none" xmlns="http://www.w3.org/2000/svg">
<path d="M2.1294 5.5787H2.6294V5.0787V3.47618C2.6294 2.52637 2.92664 1.79096 3.40951 1.2955C3.89106 0.801407 4.60121 0.500572 5.51626 0.500488C5.51639 0.500488 5.51652 0.500488 5.51664 0.500488L7.13561 0.503087V2.23545L6.11405 2.23582C6.11399 2.23582 6.11393 2.23582 6.11387 2.23582C5.64941 2.23584 5.20938 2.32129 4.91719 2.65225C4.6381 2.96836 4.60789 3.38839 4.60789 3.72022V5.0787V5.5787H5.10789H7.04973L7.04901 7.47668H5.10789H4.60789V7.97668V13.6235H2.6294V7.97668V7.47668H2.1294H0.5V5.5787H2.1294ZM7.34779 2.23538H7.34761H7.34779Z" fill="#FFB635" stroke="#FFB635"/>
</svg>
