<svg width="15" height="15" viewBox="0 0 15 15" fill="none" xmlns="http://www.w3.org/2000/svg">
<path d="M13.2328 1.901C12.0221 0.690231 10.0591 0.690231 8.84835 1.90097L6.25718 4.49215C5.00479 5.74459 5.12074 7.74015 6.25718 8.87664C6.44748 9.06695 6.65805 9.22212 6.88039 9.34957L7.35331 8.87664C7.6635 8.56641 7.55432 8.20375 7.54874 7.94206C7.48066 7.8938 7.41444 7.84163 7.35331 7.78051C6.77012 7.19737 6.7439 6.19768 7.35331 5.58826C7.44382 5.49776 9.88951 3.05206 9.94444 2.99714C10.549 2.3926 11.5322 2.3926 12.1367 2.99714C12.7412 3.60167 12.7412 4.58485 12.1367 5.18938L10.424 6.90211C10.4735 7.17615 10.7707 7.8253 10.6178 8.89615C10.6253 8.88881 10.6342 8.88408 10.6417 8.87667L13.2328 6.28549C14.4436 5.07472 14.4436 3.11177 13.2328 1.901Z" fill="#4378FF"/>
<path d="M8.99753 6.13625C8.80725 5.94595 8.59666 5.79078 8.37437 5.66333L7.90145 6.13625C7.59121 6.44644 7.70039 6.8091 7.70597 7.07079C7.7741 7.11905 7.84032 7.17121 7.90145 7.23234C8.48464 7.81553 8.51086 8.81517 7.90145 9.42458C7.81074 9.51529 5.16246 12.1636 5.10947 12.2166C4.50494 12.8211 3.52176 12.8211 2.91723 12.2166C2.3127 11.612 2.3127 10.6288 2.91723 10.0243L4.83081 8.11073C4.78128 7.83669 4.48402 7.18754 4.63694 6.1167C4.62947 6.12403 4.62048 6.12881 4.61304 6.13623L1.82109 8.92823C0.610376 10.139 0.610376 12.1019 1.82109 13.3127C3.03186 14.5234 4.99479 14.5234 6.20556 13.3127L8.99753 10.5207C10.2267 9.29158 10.1595 7.29822 8.99753 6.13625Z" fill="#4378FF"/>
</svg>
