<svg width="22" height="16" viewBox="0 0 22 16" fill="none" xmlns="http://www.w3.org/2000/svg">
<path d="M15.2764 7.84097C15.0489 8.034 15.016 8.37936 15.1976 8.61497L15.1976 8.61499L19.3819 14.0424H2.61802L6.80238 8.61499L6.80241 8.61494C6.98396 8.37926 6.95101 8.03428 6.72352 7.84098L6.7235 7.84096C6.49206 7.64441 6.15182 7.68333 5.96679 7.92351L1.91922 13.1735V2.62151L9.85585 8.87163L9.85625 8.87194C10.1941 9.13611 10.602 9.24996 10.9995 9.25111L11.0002 9.2511C11.3973 9.25022 11.8056 9.13635 12.1436 8.87193L12.144 8.87163L20.0806 2.62151V13.1734L16.0331 7.9235C16.0331 7.92349 16.0331 7.92348 16.0331 7.92347C15.8482 7.68348 15.5077 7.64428 15.2764 7.84097ZM15.2764 7.84097C15.2765 7.84094 15.2765 7.84091 15.2765 7.84088L15.3735 7.95529L15.2763 7.84104C15.2764 7.84102 15.2764 7.84099 15.2764 7.84097ZM10.5028 7.98987L2.8434 1.95764H19.1565L11.4972 7.98986L11.4963 7.99052C11.3836 8.08061 11.1978 8.1444 11.0007 8.14346L10.9992 8.14347C10.8022 8.1444 10.6164 8.08062 10.5036 7.99051L10.5028 7.98987ZM19.9743 0.85H2.02566C1.37187 0.85 0.85 1.40873 0.85 2.0769V13.9231C0.85 14.5912 1.37186 15.15 2.02566 15.15H19.9743C20.628 15.15 21.15 14.5913 21.15 13.9231V2.0769C21.15 1.40873 20.6281 0.85 19.9743 0.85Z" fill="#00A852" stroke="#00A852" stroke-width="0.3"/>
</svg>
