<svg width="40" height="39" viewBox="0 0 40 39" fill="none" xmlns="http://www.w3.org/2000/svg">
<path d="M34.3017 0.583496C31.1596 0.583496 28.6034 3.1397 28.6034 6.28181C28.6034 7.55724 29.4034 9.47954 31.0499 12.1576C31.6297 13.1001 32.2042 13.9565 32.6384 14.5836H15.4384C12.0669 14.5836 9.32481 17.3264 9.32481 20.6979C9.32481 24.0693 12.0669 26.8114 15.4384 26.8114H23.267C25.0308 26.8114 26.4662 28.2469 26.4662 30.0114C26.4662 31.776 25.0308 33.2115 23.267 33.2115H8.41814C7.96557 31.6267 6.50499 30.4625 4.77698 30.4625C2.68859 30.4625 0.990295 32.1615 0.990295 34.2499C0.990295 36.3376 2.68859 38.0366 4.77698 38.0366C6.42803 38.0366 7.83528 36.9738 8.35185 35.4972H23.267C26.2917 35.4972 28.7519 33.0362 28.7519 30.0114C28.7519 26.9867 26.2917 24.5257 23.267 24.5257H15.4384C13.3279 24.5257 11.6105 22.8084 11.6105 20.6979C11.6105 18.5866 13.3279 16.8693 15.4384 16.8693H34.3009L34.3017 16.87L35.2198 15.6297C35.2678 15.5649 36.4015 14.0304 37.5527 12.1576C39.1992 9.47954 40 7.55724 40 6.28181C40 3.1397 37.4438 0.583496 34.3017 0.583496ZM34.3017 7.11076C33.6632 7.11076 33.1459 6.59343 33.1459 5.95495C33.1459 5.31647 33.6632 4.79913 34.3017 4.79913C34.9394 4.79913 35.4567 5.31647 35.4567 5.95495C35.4567 6.59343 34.9394 7.11076 34.3017 7.11076Z" fill="#FFB635"/>
</svg>
