<svg width="24" height="22" viewBox="0 0 24 22" fill="none" xmlns="http://www.w3.org/2000/svg">
<circle cx="5.22732" cy="4.10769" r="3.43289" fill="#FFB635"/>
<path d="M0.855225 21.4259V8.72293C1.0564 8.51406 2.19034 8.48092 2.73217 8.49046L5.26158 18.022L7.791 8.49046C9.9811 8.50589 10.4798 8.90689 10.6135 9.16909L13.4752 13.2717L15.4908 10.4338H20.8853C20.6985 10.8173 19.4005 11.2337 18.4793 11.5751C17.9558 11.7692 17.6355 11.9931 17.5065 12.0378C17.2218 12.1365 16.6277 12.9626 16.3663 13.3633C15.662 14.4689 14.0683 16.6802 13.3279 16.6802C12.5876 16.6802 11.102 14.8083 10.4517 13.8723V21.4259H0.855225Z" fill="#FFB635"/>
<path fill-rule="evenodd" clip-rule="evenodd" d="M18.2619 4.04419C16.0683 4.04419 14.2439 5.62461 13.8651 7.7089H13.4559C13.0076 7.7089 12.6443 8.07226 12.6443 8.52048C12.6443 8.9687 13.0076 9.33206 13.4559 9.33206H18.2618V9.33209H23.0678C23.5161 9.33209 23.8794 8.96874 23.8794 8.52051C23.8794 8.07229 23.5161 7.70894 23.0678 7.70894H22.6586C22.2798 5.62466 20.4554 4.04425 18.2619 4.04422V4.04419Z" fill="#FFB635"/>
<circle cx="18.2617" cy="2.93556" r="1.00783" fill="#FFB635"/>
</svg>
