<svg width="17" height="18" viewBox="0 0 17 18" fill="none" xmlns="http://www.w3.org/2000/svg">
<path fill-rule="evenodd" clip-rule="evenodd" d="M16.5356 1.17704C16.6755 1.20804 16.7847 1.31723 16.8157 1.45705C16.8562 1.62654 17.711 5.65722 15.3161 9.03577C13.6618 11.3459 10.8875 12.7312 7.07053 13.188C7.24001 14.2933 7.51634 17.2777 5.641 17.9777C5.60904 17.9896 5.57556 17.9971 5.54152 17.9998H5.48257C5.15098 17.9998 3.53355 17.8303 3.40091 14.6102C1.99717 14.5549 1.01345 14.216 0.453429 13.6044C0.15601 13.3024 -0.00734524 12.8934 0.00025374 12.4696C0.00297095 12.4356 0.0104318 12.4021 0.0223599 12.3701C0.401848 11.3569 1.52189 10.819 3.26459 10.819C3.78404 10.8223 4.30248 10.8641 4.81571 10.9443C5.89154 1.97655 11.9818 0.99651 14.5792 0.99651C15.2358 0.990431 15.8913 1.0509 16.5356 1.17704ZM13.1639 4.83874C13.6633 5.27538 14.4221 5.22449 14.8587 4.72508C15.2954 4.22566 15.2445 3.46687 14.745 3.03027C14.2704 2.57503 13.5212 2.57503 13.0466 3.03027C12.58 3.49888 12.58 4.25647 13.0466 4.72508H13.0502C13.0855 4.76547 13.1235 4.80342 13.1639 4.83874ZM13.8973 3.41381C14.017 3.41492 14.1315 3.46221 14.2172 3.5458C14.4007 3.72486 14.4042 4.01878 14.2252 4.20226C14.0423 4.37916 13.7522 4.37916 13.5693 4.20226C13.4858 4.1166 13.4385 4.00197 13.4374 3.88232C13.435 3.62598 13.6409 3.4162 13.8973 3.41381Z" fill="#FFB635"/>
</svg>
