<svg width="31" height="31" viewBox="0 0 31 31" fill="none" xmlns="http://www.w3.org/2000/svg">
<path fill-rule="evenodd" clip-rule="evenodd" d="M7.31641 8.37866C6.76412 8.37866 6.31641 8.82638 6.31641 9.37866V24.3787C6.31641 24.9309 6.76412 25.3787 7.31641 25.3787H26.3164C26.8687 25.3787 27.3164 24.9309 27.3164 24.3787V20.3787H18.3164C17.7641 20.3787 17.3164 19.9309 17.3164 19.3787V14.3787C17.3164 13.8264 17.7641 13.3787 18.3164 13.3787H27.3164V9.37866C27.3164 8.82638 26.8687 8.37866 26.3164 8.37866H7.31641Z" fill="#FFB635"/>
<path d="M24.4477 7.93604L24.002 6.27245C23.859 5.73899 23.3107 5.4224 22.7772 5.56535L13.9297 7.93604L24.4477 7.93604Z" fill="#FFB635"/>
<path d="M20.2142 5.48562L19.3531 3.99409C19.0769 3.5158 18.4653 3.35193 17.987 3.62807L10.6992 7.83569L11.4436 7.83569L20.2142 5.48562Z" fill="#FFB635"/>
<path fill-rule="evenodd" clip-rule="evenodd" d="M19.3164 14.3787C18.7641 14.3787 18.3164 14.8264 18.3164 15.3787V18.3787C18.3164 18.9309 18.7641 19.3787 19.3164 19.3787H27.3164C27.8687 19.3787 28.3164 18.9309 28.3164 18.3787V15.3787C28.3164 14.8264 27.8687 14.3787 27.3164 14.3787H19.3164ZM20.8164 15.8787C20.5403 15.8787 20.3164 16.1025 20.3164 16.3787V17.3787C20.3164 17.6548 20.5403 17.8787 20.8164 17.8787H21.8164C22.0925 17.8787 22.3164 17.6548 22.3164 17.3787V16.3787C22.3164 16.1025 22.0925 15.8787 21.8164 15.8787H20.8164Z" fill="#FFB635"/>
<path d="M10.0883 15.3303V14.8303H9.58827H7.07465H6.57465V15.3303V22.1556H4.76562H3.55852L4.41207 23.0091L7.96687 26.5639L8.32042 26.9175L8.67398 26.5639L12.2288 23.0091L13.0823 22.1556H11.8752H10.0883V15.3303Z" fill="#FFB635" stroke="white"/>
</svg>
