<svg width="21" height="21" viewBox="0 0 21 21" fill="none" xmlns="http://www.w3.org/2000/svg">
<path d="M20.4584 15.416C20.5138 15.1314 20.4956 14.8074 20.402 14.4703C19.7883 12.2595 17.9518 7.73324 16.4258 5.86904C16.0253 5.37986 15.2539 5.42212 14.8066 5.86904C14.6098 6.06591 14.5005 6.31665 14.4772 6.57377C14.3573 6.46296 14.2054 6.38644 14.0377 6.36455C14.0377 6.36455 10.1671 5.88224 10.1202 5.88837H8.36003C7.78648 5.88837 7.61863 6.22096 7.61863 6.62978V12.2803H6.32679V6.22081C6.32679 5.92104 6.08287 5.67711 5.78309 5.67711H0.5437C0.243924 5.67711 0 5.92104 0 6.22081C0 6.22081 0.00187824 14.7295 0.00187824 15.2799C0.00187824 15.9121 0.51439 16.4245 1.14657 16.4245H2.26985C2.21182 16.6608 2.18044 16.9075 2.18044 17.1615C2.18044 18.8669 3.56816 20.2544 5.27384 20.2544C6.97943 20.2544 8.36705 18.8669 8.36705 17.1615C8.36705 16.9075 8.33562 16.6608 8.27764 16.4245H11.7396V17.183C11.7396 17.7826 12.2274 18.2704 12.827 18.2704H12.8478C13.1378 18.2704 13.4101 18.1567 13.6144 17.9503C13.8187 17.7438 13.9296 17.4705 13.9267 17.1805L13.919 16.4245H14.9027C14.8446 16.6608 14.8133 16.9075 14.8133 17.1615C14.8133 18.8669 16.201 20.2544 17.9067 20.2544C19.6123 20.2544 20.9999 18.8669 20.9999 17.1615C20.9998 16.5143 20.7996 15.9132 20.4584 15.416ZM17.9066 15.9942C18.5502 15.9942 19.0738 16.5179 19.0738 17.1615C19.0738 17.8051 18.5502 18.3288 17.9066 18.3288C17.2627 18.3288 16.7389 17.8051 16.7389 17.1615C16.7389 16.5179 17.2626 15.9942 17.9066 15.9942ZM6.44107 17.1615C6.44107 17.8051 5.91744 18.3288 5.27379 18.3288C4.6299 18.3288 4.10607 17.8051 4.10607 17.1615C4.10607 16.5179 4.6299 15.9942 5.27379 15.9942C5.91744 15.9942 6.44107 16.5179 6.44107 17.1615ZM13.8782 12.4469C13.8721 11.8487 13.3805 11.362 12.7822 11.362H10.9729V7.66721L11.8576 7.7759C11.9296 8.10681 12.2238 8.35474 12.5762 8.35474H15.6732L15.9133 10.3548L13.884 13.0116L13.8782 12.4469Z" fill="#FFB635"/>
<path d="M9.02847 5.0958C10.2277 5.0958 11.2034 4.12015 11.2034 2.92085C11.2034 2.76836 11.1874 2.61954 11.1574 2.4758L11.6346 2.46641C11.9188 2.46078 12.2253 2.26287 12.3473 2.006L12.5074 1.6692C12.5834 1.5092 12.5794 1.34214 12.4964 1.21081C12.4135 1.07958 12.2645 1.0043 12.086 1.0043L10.0643 1.009C9.75614 0.84134 9.40323 0.746094 9.02842 0.746094C7.82916 0.746094 6.85352 1.72169 6.85352 2.92094C6.85357 4.12015 7.82921 5.0958 9.02847 5.0958Z" fill="#FFB635"/>
</svg>
