<svg width="23" height="16" viewBox="0 0 23 16" fill="none" xmlns="http://www.w3.org/2000/svg">
<path d="M1.90392 13.1649H21.0967C21.3494 13.1649 21.5904 13.0582 21.7609 12.8716C21.9312 12.6851 22.0163 12.4347 21.9929 12.1829C21.5564 7.45765 17.998 3.64042 13.4006 2.80216C13.4107 2.72172 13.4251 2.64287 13.4251 2.55941C13.4251 1.65713 12.6941 0 11.5003 0C10.3065 0 9.57554 1.65713 9.57554 2.55941C9.57554 2.64287 9.5899 2.72168 9.60004 2.80216C5.00267 3.64046 1.44422 7.4577 1.00777 12.1829C0.984339 12.4348 1.06817 12.6851 1.2389 12.8717C1.40954 13.0588 1.65084 13.1649 1.90392 13.1649ZM10.7305 2.55945C10.7305 1.98041 11.2285 1.15498 11.5003 1.15498C11.7722 1.15498 12.2702 1.98041 12.2702 2.55945C12.2702 2.59623 12.2545 2.62706 12.2492 2.66235C12.001 2.645 11.753 2.62706 11.5003 2.62706C11.2477 2.62706 10.9997 2.645 10.7514 2.66235C10.7461 2.62706 10.7305 2.59623 10.7305 2.55945Z" fill="#FFB635"/>
<path d="M22.0378 13.9829H0.96226C0.430776 13.9829 0 14.4136 0 14.9452C0 15.4767 0.430776 15.9077 0.96226 15.9077H22.0378C22.5693 15.9077 23.0001 15.4767 23.0001 14.9452C23.0001 14.4136 22.5693 13.9829 22.0378 13.9829Z" fill="#FFB635"/>
</svg>
