<svg width="490" height="270" viewBox="0 0 490 270" fill="none" xmlns="http://www.w3.org/2000/svg">
<rect width="490" height="270" fill="white"/>
<path d="M39.372 30.136C38.4313 30.136 37.57 30.0113 36.788 29.762C36.0173 29.5127 35.3487 29.1387 34.782 28.64L35.411 27.348C36.0003 27.824 36.6123 28.1697 37.247 28.385C37.8817 28.6003 38.5957 28.708 39.389 28.708C40.2957 28.708 40.9983 28.538 41.497 28.198C41.9957 27.858 42.245 27.3763 42.245 26.753C42.245 26.2317 42.0127 25.8407 41.548 25.58C41.0833 25.308 40.3467 25.0587 39.338 24.832C38.3747 24.628 37.587 24.3957 36.975 24.135C36.363 23.863 35.8813 23.506 35.53 23.064C35.1787 22.6107 35.003 22.0327 35.003 21.33C35.003 20.6273 35.19 20.0097 35.564 19.477C35.938 18.933 36.465 18.5137 37.145 18.219C37.8363 17.913 38.6297 17.76 39.525 17.76C40.375 17.76 41.1683 17.8903 41.905 18.151C42.653 18.4117 43.2763 18.78 43.775 19.256L43.146 20.548C42.5907 20.0833 42.0183 19.7433 41.429 19.528C40.8397 19.3013 40.2107 19.188 39.542 19.188C38.6693 19.188 37.9837 19.375 37.485 19.749C36.9863 20.1117 36.737 20.6103 36.737 21.245C36.737 21.789 36.9523 22.2027 37.383 22.486C37.825 22.7693 38.5277 23.0243 39.491 23.251C40.4997 23.4777 41.3157 23.7157 41.939 23.965C42.5623 24.2143 43.061 24.5543 43.435 24.985C43.809 25.4157 43.996 25.971 43.996 26.651C43.996 27.3537 43.809 27.9657 43.435 28.487C43.061 29.0083 42.5227 29.4163 41.82 29.711C41.1287 29.9943 40.3127 30.136 39.372 30.136ZM53.3258 25.75H47.2058C47.2625 27.756 48.1748 28.759 49.9428 28.759C50.9288 28.759 51.8298 28.436 52.6458 27.79L53.1728 29.014C52.7875 29.354 52.2945 29.626 51.6938 29.83C51.1045 30.0227 50.5095 30.119 49.9088 30.119C48.5375 30.119 47.4608 29.728 46.6788 28.946C45.8968 28.1527 45.5058 27.0703 45.5058 25.699C45.5058 24.8263 45.6758 24.05 46.0158 23.37C46.3671 22.69 46.8545 22.163 47.4778 21.789C48.1011 21.415 48.8095 21.228 49.6028 21.228C50.7588 21.228 51.6655 21.602 52.3228 22.35C52.9915 23.098 53.3258 24.135 53.3258 25.461V25.75ZM49.6368 22.503C48.9908 22.503 48.4638 22.6957 48.0558 23.081C47.6478 23.4663 47.3871 24.016 47.2738 24.73H51.8128C51.7448 24.0047 51.5238 23.455 51.1498 23.081C50.7758 22.6957 50.2715 22.503 49.6368 22.503ZM59.5631 21.228C59.8238 21.228 60.0958 21.2677 60.3791 21.347L60.3451 22.911C60.0391 22.7977 59.7048 22.741 59.3421 22.741C58.5601 22.741 57.9708 22.979 57.5741 23.455C57.1888 23.9197 56.9961 24.509 56.9961 25.223V30H55.2961V23.846C55.2961 22.9507 55.2508 22.146 55.1601 21.432H56.7581L56.9111 22.979C57.1378 22.4123 57.4891 21.9817 57.9651 21.687C58.4411 21.381 58.9738 21.228 59.5631 21.228ZM69.9883 21.449L66.2653 30H64.7183L61.0293 21.449H62.8483L65.5343 28.062L68.2713 21.449H69.9883ZM71.3166 21.432H73.0166V30H71.3166V21.432ZM73.1526 17.692V19.494H71.1636V17.692H73.1526ZM80.0894 21.228C82.1407 21.228 83.1664 22.3727 83.1664 24.662V30H81.4494V24.764C81.4494 24.016 81.3021 23.472 81.0074 23.132C80.7241 22.792 80.2651 22.622 79.6304 22.622C78.9051 22.622 78.3214 22.8487 77.8794 23.302C77.4487 23.7553 77.2334 24.3617 77.2334 25.121V30H75.5334V23.846C75.5334 22.9507 75.4881 22.146 75.3974 21.432H76.9954L77.1484 22.911C77.4204 22.367 77.8114 21.9533 78.3214 21.67C78.8427 21.3753 79.4321 21.228 80.0894 21.228ZM93.5155 21.432V29.847C93.5155 31.1503 93.1699 32.1307 92.4785 32.788C91.7985 33.4567 90.7842 33.791 89.4355 33.791C88.1322 33.791 86.9932 33.5077 86.0185 32.941L86.3075 31.598C86.8402 31.8813 87.3502 32.091 87.8375 32.227C88.3362 32.363 88.8632 32.431 89.4185 32.431C91.0165 32.431 91.8155 31.615 91.8155 29.983V28.13C91.5549 28.6287 91.1752 29.0253 90.6765 29.32C90.1779 29.6033 89.5999 29.745 88.9425 29.745C88.1945 29.745 87.5259 29.5693 86.9365 29.218C86.3585 28.8667 85.9052 28.368 85.5765 27.722C85.2592 27.076 85.1005 26.3337 85.1005 25.495C85.1005 24.6563 85.2592 23.914 85.5765 23.268C85.9052 22.622 86.3585 22.1233 86.9365 21.772C87.5259 21.4093 88.1945 21.228 88.9425 21.228C89.5999 21.228 90.1779 21.3697 90.6765 21.653C91.1752 21.925 91.5549 22.316 91.8155 22.826V21.432H93.5155ZM89.3335 28.368C90.1042 28.368 90.7105 28.113 91.1525 27.603C91.5945 27.093 91.8155 26.3903 91.8155 25.495C91.8155 24.5997 91.5945 23.897 91.1525 23.387C90.7219 22.8657 90.1155 22.605 89.3335 22.605C88.5629 22.605 87.9509 22.8657 87.4975 23.387C87.0555 23.897 86.8345 24.5997 86.8345 25.495C86.8345 26.379 87.0555 27.0817 87.4975 27.603C87.9509 28.113 88.5629 28.368 89.3335 28.368ZM105.108 21.228C105.844 21.228 106.502 21.415 107.08 21.789C107.658 22.163 108.105 22.69 108.423 23.37C108.751 24.05 108.916 24.832 108.916 25.716C108.916 26.6 108.757 27.3763 108.44 28.045C108.122 28.7023 107.675 29.2123 107.097 29.575C106.519 29.9377 105.856 30.119 105.108 30.119C104.45 30.119 103.872 29.983 103.374 29.711C102.886 29.4277 102.518 29.0253 102.269 28.504V33.672H100.569V23.846C100.569 22.9507 100.523 22.146 100.433 21.432H102.031L102.201 23.013C102.427 22.4463 102.796 22.01 103.306 21.704C103.816 21.3867 104.416 21.228 105.108 21.228ZM104.717 28.759C105.487 28.759 106.088 28.4927 106.519 27.96C106.949 27.4273 107.165 26.6793 107.165 25.716C107.165 24.7413 106.949 23.982 106.519 23.438C106.088 22.8827 105.487 22.605 104.717 22.605C103.923 22.605 103.317 22.8713 102.898 23.404C102.478 23.9367 102.269 24.696 102.269 25.682C102.269 26.668 102.478 27.4273 102.898 27.96C103.328 28.4927 103.935 28.759 104.717 28.759ZM115.195 21.228C115.456 21.228 115.728 21.2677 116.011 21.347L115.977 22.911C115.671 22.7977 115.337 22.741 114.974 22.741C114.192 22.741 113.603 22.979 113.206 23.455C112.821 23.9197 112.628 24.509 112.628 25.223V30H110.928V23.846C110.928 22.9507 110.883 22.146 110.792 21.432H112.39L112.543 22.979C112.77 22.4123 113.121 21.9817 113.597 21.687C114.073 21.381 114.606 21.228 115.195 21.228ZM117.32 21.432H119.02V30H117.32V21.432ZM119.156 17.692V19.494H117.167V17.692H119.156ZM125.259 30.119C124.398 30.119 123.644 29.9377 122.998 29.575C122.364 29.2123 121.876 28.7023 121.536 28.045C121.196 27.3763 121.026 26.6 121.026 25.716C121.026 24.832 121.202 24.05 121.553 23.37C121.916 22.69 122.42 22.163 123.066 21.789C123.712 21.415 124.466 21.228 125.327 21.228C125.928 21.228 126.506 21.33 127.061 21.534C127.617 21.7267 128.064 21.993 128.404 22.333L127.877 23.574C127.073 22.9393 126.262 22.622 125.446 22.622C124.619 22.622 123.973 22.894 123.508 23.438C123.044 23.9707 122.811 24.7243 122.811 25.699C122.811 26.6737 123.044 27.4273 123.508 27.96C123.973 28.4813 124.619 28.742 125.446 28.742C126.285 28.742 127.095 28.4247 127.877 27.79L128.404 29.031C128.042 29.371 127.577 29.6373 127.01 29.83C126.455 30.0227 125.871 30.119 125.259 30.119ZM137.33 25.75H131.21C131.266 27.756 132.179 28.759 133.947 28.759C134.933 28.759 135.834 28.436 136.65 27.79L137.177 29.014C136.791 29.354 136.298 29.626 135.698 29.83C135.108 30.0227 134.513 30.119 133.913 30.119C132.541 30.119 131.465 29.728 130.683 28.946C129.901 28.1527 129.51 27.0703 129.51 25.699C129.51 24.8263 129.68 24.05 130.02 23.37C130.371 22.69 130.858 22.163 131.482 21.789C132.105 21.415 132.813 21.228 133.607 21.228C134.763 21.228 135.669 21.602 136.327 22.35C136.995 23.098 137.33 24.135 137.33 25.461V25.75ZM133.641 22.503C132.995 22.503 132.468 22.6957 132.06 23.081C131.652 23.4663 131.391 24.016 131.278 24.73H135.817C135.749 24.0047 135.528 23.455 135.154 23.081C134.78 22.6957 134.275 22.503 133.641 22.503ZM151.618 21.449L147.895 30H146.348L142.659 21.449H144.478L147.164 28.062L149.901 21.449H151.618ZM155.806 30.119C154.31 30.119 153.131 29.7563 152.27 29.031L152.78 27.79C153.675 28.47 154.701 28.81 155.857 28.81C156.446 28.81 156.894 28.7137 157.2 28.521C157.506 28.317 157.659 28.0337 157.659 27.671C157.659 27.365 157.551 27.127 157.336 26.957C157.132 26.7757 156.78 26.6227 156.282 26.498L154.854 26.158C154.106 25.9993 153.533 25.7217 153.137 25.325C152.751 24.917 152.559 24.4127 152.559 23.812C152.559 23.0413 152.865 22.418 153.477 21.942C154.1 21.466 154.922 21.228 155.942 21.228C156.554 21.228 157.132 21.3243 157.676 21.517C158.231 21.7097 158.701 21.9817 159.087 22.333L158.56 23.54C157.732 22.8827 156.86 22.554 155.942 22.554C155.386 22.554 154.956 22.6617 154.65 22.877C154.344 23.081 154.191 23.37 154.191 23.744C154.191 24.0387 154.287 24.2767 154.48 24.458C154.672 24.6393 154.978 24.781 155.398 24.883L156.86 25.24C157.676 25.4213 158.276 25.7103 158.662 26.107C159.058 26.4923 159.257 26.9967 159.257 27.62C159.257 28.3907 158.945 29.0027 158.322 29.456C157.71 29.898 156.871 30.119 155.806 30.119ZM162.999 27.96V30H160.959V27.96H162.999ZM174.37 21.228C176.421 21.228 177.447 22.3727 177.447 24.662V30H175.73V24.764C175.73 24.016 175.582 23.472 175.288 23.132C175.004 22.792 174.545 22.622 173.911 22.622C173.185 22.622 172.602 22.8487 172.16 23.302C171.729 23.7553 171.514 24.3617 171.514 25.121V30H169.814V23.846C169.814 22.9507 169.768 22.146 169.678 21.432H171.276L171.429 22.911C171.701 22.367 172.092 21.9533 172.602 21.67C173.123 21.3753 173.712 21.228 174.37 21.228ZM187.337 21.432V30H185.671V28.572C185.399 29.0707 185.025 29.456 184.549 29.728C184.073 29.9887 183.534 30.119 182.934 30.119C180.871 30.119 179.84 28.9743 179.84 26.685V21.432H181.54V26.668C181.54 27.3707 181.681 27.892 181.965 28.232C182.259 28.5607 182.701 28.725 183.291 28.725C183.993 28.725 184.554 28.4983 184.974 28.045C185.404 27.5917 185.62 26.991 185.62 26.243V21.432H187.337ZM199.627 21.228C201.531 21.228 202.483 22.3727 202.483 24.662V30H200.766V24.747C200.766 24.0103 200.635 23.472 200.375 23.132C200.125 22.792 199.717 22.622 199.151 22.622C198.493 22.622 197.972 22.8487 197.587 23.302C197.213 23.7553 197.026 24.373 197.026 25.155V30H195.309V24.747C195.309 24.0103 195.178 23.472 194.918 23.132C194.668 22.792 194.26 22.622 193.694 22.622C193.036 22.622 192.515 22.8487 192.13 23.302C191.744 23.7553 191.552 24.373 191.552 25.155V30H189.852V23.846C189.852 22.9507 189.806 22.146 189.716 21.432H191.314L191.467 22.86C191.716 22.3387 192.073 21.9363 192.538 21.653C193.002 21.3697 193.546 21.228 194.17 21.228C195.496 21.228 196.363 21.7777 196.771 22.877C197.031 22.367 197.411 21.9647 197.91 21.67C198.42 21.3753 198.992 21.228 199.627 21.228ZM209.482 21.228C210.23 21.228 210.893 21.4093 211.471 21.772C212.049 22.1347 212.496 22.6503 212.814 23.319C213.131 23.9877 213.29 24.764 213.29 25.648C213.29 26.532 213.125 27.314 212.797 27.994C212.479 28.6627 212.032 29.184 211.454 29.558C210.876 29.932 210.218 30.119 209.482 30.119C208.824 30.119 208.246 29.983 207.748 29.711C207.26 29.4277 206.892 29.0253 206.643 28.504V30H204.943V17.488H206.643V22.843C206.892 22.333 207.26 21.9363 207.748 21.653C208.246 21.3697 208.824 21.228 209.482 21.228ZM209.091 28.759C209.861 28.759 210.462 28.487 210.893 27.943C211.323 27.3877 211.539 26.6227 211.539 25.648C211.539 24.6847 211.323 23.9367 210.893 23.404C210.462 22.8713 209.861 22.605 209.091 22.605C208.309 22.605 207.702 22.8713 207.272 23.404C206.852 23.9367 206.643 24.696 206.643 25.682C206.643 26.668 206.852 27.4273 207.272 27.96C207.702 28.4927 208.309 28.759 209.091 28.759ZM222.612 25.75H216.492C216.549 27.756 217.461 28.759 219.229 28.759C220.215 28.759 221.116 28.436 221.932 27.79L222.459 29.014C222.074 29.354 221.581 29.626 220.98 29.83C220.391 30.0227 219.796 30.119 219.195 30.119C217.824 30.119 216.747 29.728 215.965 28.946C215.183 28.1527 214.792 27.0703 214.792 25.699C214.792 24.8263 214.962 24.05 215.302 23.37C215.653 22.69 216.141 22.163 216.764 21.789C217.387 21.415 218.096 21.228 218.889 21.228C220.045 21.228 220.952 21.602 221.609 22.35C222.278 23.098 222.612 24.135 222.612 25.461V25.75ZM218.923 22.503C218.277 22.503 217.75 22.6957 217.342 23.081C216.934 23.4663 216.673 24.016 216.56 24.73H221.099C221.031 24.0047 220.81 23.455 220.436 23.081C220.062 22.6957 219.558 22.503 218.923 22.503ZM228.849 21.228C229.11 21.228 229.382 21.2677 229.665 21.347L229.631 22.911C229.325 22.7977 228.991 22.741 228.628 22.741C227.846 22.741 227.257 22.979 226.86 23.455C226.475 23.9197 226.282 24.509 226.282 25.223V30H224.582V23.846C224.582 22.9507 224.537 22.146 224.446 21.432H226.044L226.197 22.979C226.424 22.4123 226.775 21.9817 227.251 21.687C227.727 21.381 228.26 21.228 228.849 21.228ZM238.498 30.119C237.002 30.119 235.823 29.7563 234.962 29.031L235.472 27.79C236.367 28.47 237.393 28.81 238.549 28.81C239.138 28.81 239.586 28.7137 239.892 28.521C240.198 28.317 240.351 28.0337 240.351 27.671C240.351 27.365 240.243 27.127 240.028 26.957C239.824 26.7757 239.473 26.6227 238.974 26.498L237.546 26.158C236.798 25.9993 236.226 25.7217 235.829 25.325C235.444 24.917 235.251 24.4127 235.251 23.812C235.251 23.0413 235.557 22.418 236.169 21.942C236.792 21.466 237.614 21.228 238.634 21.228C239.246 21.228 239.824 21.3243 240.368 21.517C240.923 21.7097 241.394 21.9817 241.779 22.333L241.252 23.54C240.425 22.8827 239.552 22.554 238.634 22.554C238.079 22.554 237.648 22.6617 237.342 22.877C237.036 23.081 236.883 23.37 236.883 23.744C236.883 24.0387 236.979 24.2767 237.172 24.458C237.365 24.6393 237.671 24.781 238.09 24.883L239.552 25.24C240.368 25.4213 240.969 25.7103 241.354 26.107C241.751 26.4923 241.949 26.9967 241.949 27.62C241.949 28.3907 241.637 29.0027 241.014 29.456C240.402 29.898 239.563 30.119 238.498 30.119ZM251.283 25.75H245.163C245.22 27.756 246.132 28.759 247.9 28.759C248.886 28.759 249.787 28.436 250.603 27.79L251.13 29.014C250.745 29.354 250.252 29.626 249.651 29.83C249.062 30.0227 248.467 30.119 247.866 30.119C246.495 30.119 245.418 29.728 244.636 28.946C243.854 28.1527 243.463 27.0703 243.463 25.699C243.463 24.8263 243.633 24.05 243.973 23.37C244.324 22.69 244.812 22.163 245.435 21.789C246.058 21.415 246.767 21.228 247.56 21.228C248.716 21.228 249.623 21.602 250.28 22.35C250.949 23.098 251.283 24.135 251.283 25.461V25.75ZM247.594 22.503C246.948 22.503 246.421 22.6957 246.013 23.081C245.605 23.4663 245.344 24.016 245.231 24.73H249.77C249.702 24.0047 249.481 23.455 249.107 23.081C248.733 22.6957 248.229 22.503 247.594 22.503ZM257.52 21.228C257.781 21.228 258.053 21.2677 258.336 21.347L258.302 22.911C257.996 22.7977 257.662 22.741 257.299 22.741C256.517 22.741 255.928 22.979 255.531 23.455C255.146 23.9197 254.953 24.509 254.953 25.223V30H253.253V23.846C253.253 22.9507 253.208 22.146 253.117 21.432H254.715L254.868 22.979C255.095 22.4123 255.446 21.9817 255.922 21.687C256.398 21.381 256.931 21.228 257.52 21.228ZM267.945 21.449L264.222 30H262.675L258.986 21.449H260.805L263.491 28.062L266.228 21.449H267.945ZM269.274 21.432H270.974V30H269.274V21.432ZM271.11 17.692V19.494H269.121V17.692H271.11ZM278.046 21.228C280.098 21.228 281.123 22.3727 281.123 24.662V30H279.406V24.764C279.406 24.016 279.259 23.472 278.964 23.132C278.681 22.792 278.222 22.622 277.587 22.622C276.862 22.622 276.278 22.8487 275.836 23.302C275.406 23.7553 275.19 24.3617 275.19 25.121V30H273.49V23.846C273.49 22.9507 273.445 22.146 273.354 21.432H274.952L275.105 22.911C275.377 22.367 275.768 21.9533 276.278 21.67C276.8 21.3753 277.389 21.228 278.046 21.228ZM291.473 21.432V29.847C291.473 31.1503 291.127 32.1307 290.436 32.788C289.756 33.4567 288.741 33.791 287.393 33.791C286.089 33.791 284.95 33.5077 283.976 32.941L284.265 31.598C284.797 31.8813 285.307 32.091 285.795 32.227C286.293 32.363 286.82 32.431 287.376 32.431C288.974 32.431 289.773 31.615 289.773 29.983V28.13C289.512 28.6287 289.132 29.0253 288.634 29.32C288.135 29.6033 287.557 29.745 286.9 29.745C286.152 29.745 285.483 29.5693 284.894 29.218C284.316 28.8667 283.862 28.368 283.534 27.722C283.216 27.076 283.058 26.3337 283.058 25.495C283.058 24.6563 283.216 23.914 283.534 23.268C283.862 22.622 284.316 22.1233 284.894 21.772C285.483 21.4093 286.152 21.228 286.9 21.228C287.557 21.228 288.135 21.3697 288.634 21.653C289.132 21.925 289.512 22.316 289.773 22.826V21.432H291.473ZM287.291 28.368C288.061 28.368 288.668 28.113 289.11 27.603C289.552 27.093 289.773 26.3903 289.773 25.495C289.773 24.5997 289.552 23.897 289.11 23.387C288.679 22.8657 288.073 22.605 287.291 22.605C286.52 22.605 285.908 22.8657 285.455 23.387C285.013 23.897 284.792 24.5997 284.792 25.495C284.792 26.379 285.013 27.0817 285.455 27.603C285.908 28.113 286.52 28.368 287.291 28.368ZM296.985 30.119C295.489 30.119 294.311 29.7563 293.449 29.031L293.959 27.79C294.855 28.47 295.88 28.81 297.036 28.81C297.626 28.81 298.073 28.7137 298.379 28.521C298.685 28.317 298.838 28.0337 298.838 27.671C298.838 27.365 298.731 27.127 298.515 26.957C298.311 26.7757 297.96 26.6227 297.461 26.498L296.033 26.158C295.285 25.9993 294.713 25.7217 294.316 25.325C293.931 24.917 293.738 24.4127 293.738 23.812C293.738 23.0413 294.044 22.418 294.656 21.942C295.28 21.466 296.101 21.228 297.121 21.228C297.733 21.228 298.311 21.3243 298.855 21.517C299.411 21.7097 299.881 21.9817 300.266 22.333L299.739 23.54C298.912 22.8827 298.039 22.554 297.121 22.554C296.566 22.554 296.135 22.6617 295.829 22.877C295.523 23.081 295.37 23.37 295.37 23.744C295.37 24.0387 295.467 24.2767 295.659 24.458C295.852 24.6393 296.158 24.781 296.577 24.883L298.039 25.24C298.855 25.4213 299.456 25.7103 299.841 26.107C300.238 26.4923 300.436 26.9967 300.436 27.62C300.436 28.3907 300.125 29.0027 299.501 29.456C298.889 29.898 298.051 30.119 296.985 30.119ZM306.992 21.432H308.692V30H306.992V21.432ZM308.828 17.692V19.494H306.839V17.692H308.828ZM315.765 21.228C317.817 21.228 318.842 22.3727 318.842 24.662V30H317.125V24.764C317.125 24.016 316.978 23.472 316.683 23.132C316.4 22.792 315.941 22.622 315.306 22.622C314.581 22.622 313.997 22.8487 313.555 23.302C313.125 23.7553 312.909 24.3617 312.909 25.121V30H311.209V23.846C311.209 22.9507 311.164 22.146 311.073 21.432H312.671L312.824 22.911C313.096 22.367 313.487 21.9533 313.997 21.67C314.519 21.3753 315.108 21.228 315.765 21.228ZM329.508 30.119C328.669 30.119 327.932 29.9377 327.298 29.575C326.663 29.2123 326.17 28.6967 325.819 28.028C325.479 27.3593 325.309 26.5773 325.309 25.682C325.309 24.7867 325.479 24.0047 325.819 23.336C326.17 22.656 326.663 22.1347 327.298 21.772C327.932 21.4093 328.669 21.228 329.508 21.228C330.335 21.228 331.066 21.4093 331.701 21.772C332.335 22.1347 332.823 22.656 333.163 23.336C333.514 24.0047 333.69 24.7867 333.69 25.682C333.69 26.5773 333.514 27.3593 333.163 28.028C332.823 28.6967 332.335 29.2123 331.701 29.575C331.066 29.9377 330.335 30.119 329.508 30.119ZM329.491 28.759C330.284 28.759 330.89 28.4983 331.31 27.977C331.729 27.4557 331.939 26.6907 331.939 25.682C331.939 24.696 331.723 23.9367 331.293 23.404C330.873 22.8713 330.278 22.605 329.508 22.605C328.726 22.605 328.119 22.8713 327.689 23.404C327.258 23.9367 327.043 24.696 327.043 25.682C327.043 26.6907 327.252 27.4557 327.672 27.977C328.102 28.4983 328.709 28.759 329.491 28.759ZM340.252 21.228C342.304 21.228 343.329 22.3727 343.329 24.662V30H341.612V24.764C341.612 24.016 341.465 23.472 341.17 23.132C340.887 22.792 340.428 22.622 339.793 22.622C339.068 22.622 338.484 22.8487 338.042 23.302C337.612 23.7553 337.396 24.3617 337.396 25.121V30H335.696V23.846C335.696 22.9507 335.651 22.146 335.56 21.432H337.158L337.311 22.911C337.583 22.367 337.974 21.9533 338.484 21.67C339.006 21.3753 339.595 21.228 340.252 21.228ZM353.084 25.75H346.964C347.02 27.756 347.933 28.759 349.701 28.759C350.687 28.759 351.588 28.436 352.404 27.79L352.931 29.014C352.545 29.354 352.052 29.626 351.452 29.83C350.862 30.0227 350.267 30.119 349.667 30.119C348.295 30.119 347.219 29.728 346.437 28.946C345.655 28.1527 345.264 27.0703 345.264 25.699C345.264 24.8263 345.434 24.05 345.774 23.37C346.125 22.69 346.612 22.163 347.236 21.789C347.859 21.415 348.567 21.228 349.361 21.228C350.517 21.228 351.423 21.602 352.081 22.35C352.749 23.098 353.084 24.135 353.084 25.461V25.75ZM349.395 22.503C348.749 22.503 348.222 22.6957 347.814 23.081C347.406 23.4663 347.145 24.016 347.032 24.73H351.571C351.503 24.0047 351.282 23.455 350.908 23.081C350.534 22.6957 350.029 22.503 349.395 22.503ZM369.361 21.228C371.265 21.228 372.217 22.3727 372.217 24.662V30H370.5V24.747C370.5 24.0103 370.37 23.472 370.109 23.132C369.86 22.792 369.452 22.622 368.885 22.622C368.228 22.622 367.706 22.8487 367.321 23.302C366.947 23.7553 366.76 24.373 366.76 25.155V30H365.043V24.747C365.043 24.0103 364.913 23.472 364.652 23.132C364.403 22.792 363.995 22.622 363.428 22.622C362.771 22.622 362.249 22.8487 361.864 23.302C361.479 23.7553 361.286 24.373 361.286 25.155V30H359.586V23.846C359.586 22.9507 359.541 22.146 359.45 21.432H361.048L361.201 22.86C361.45 22.3387 361.807 21.9363 362.272 21.653C362.737 21.3697 363.281 21.228 363.904 21.228C365.23 21.228 366.097 21.7777 366.505 22.877C366.766 22.367 367.145 21.9647 367.644 21.67C368.154 21.3753 368.726 21.228 369.361 21.228ZM381.987 25.75H375.867C375.924 27.756 376.836 28.759 378.604 28.759C379.59 28.759 380.491 28.436 381.307 27.79L381.834 29.014C381.449 29.354 380.956 29.626 380.355 29.83C379.766 30.0227 379.171 30.119 378.57 30.119C377.199 30.119 376.122 29.728 375.34 28.946C374.558 28.1527 374.167 27.0703 374.167 25.699C374.167 24.8263 374.337 24.05 374.677 23.37C375.028 22.69 375.516 22.163 376.139 21.789C376.762 21.415 377.471 21.228 378.264 21.228C379.42 21.228 380.327 21.602 380.984 22.35C381.653 23.098 381.987 24.135 381.987 25.461V25.75ZM378.298 22.503C377.652 22.503 377.125 22.6957 376.717 23.081C376.309 23.4663 376.048 24.016 375.935 24.73H380.474C380.406 24.0047 380.185 23.455 379.811 23.081C379.437 22.6957 378.933 22.503 378.298 22.503ZM391.794 21.432V30H390.094V28.538C389.845 29.048 389.471 29.439 388.972 29.711C388.485 29.983 387.913 30.119 387.255 30.119C386.496 30.119 385.827 29.9377 385.249 29.575C384.683 29.2123 384.241 28.7023 383.923 28.045C383.606 27.3763 383.447 26.6 383.447 25.716C383.447 24.832 383.606 24.05 383.923 23.37C384.252 22.69 384.705 22.163 385.283 21.789C385.861 21.415 386.519 21.228 387.255 21.228C387.913 21.228 388.485 21.3697 388.972 21.653C389.46 21.925 389.834 22.316 390.094 22.826V21.432H391.794ZM387.663 28.759C388.434 28.759 389.029 28.4927 389.448 27.96C389.879 27.416 390.094 26.6567 390.094 25.682C390.094 24.696 389.879 23.9367 389.448 23.404C389.029 22.8713 388.428 22.605 387.646 22.605C386.876 22.605 386.269 22.8827 385.827 23.438C385.397 23.982 385.181 24.7413 385.181 25.716C385.181 26.6793 385.397 27.4273 385.827 27.96C386.269 28.4927 386.881 28.759 387.663 28.759ZM394.317 17.488H396.017V30H394.317V17.488Z" fill="#7E7E7E"/>
<line x1="72" y1="207.5" x2="475" y2="207.5" stroke="#DEDEDE"/>
<line x1="72.5" y1="208" x2="72.5" y2="53" stroke="#DEDEDE"/>
<path d="M37.6299 52.2402H38.5254V52.9854C38.972 53.0674 39.3525 53.2132 39.667 53.4229C39.986 53.6325 40.2913 53.9424 40.583 54.3525L39.8447 54.9473C39.4938 54.4049 39.054 54.0768 38.5254 53.9629V57.374C39.7194 58.0029 40.4622 58.5133 40.7539 58.9053C41.1276 59.4066 41.3145 59.9603 41.3145 60.5664C41.3145 61.0677 41.1755 61.528 40.8975 61.9473C40.624 62.362 40.2526 62.6855 39.7832 62.918C39.4779 63.0684 39.0586 63.1777 38.5254 63.2461V65.3857H37.6299V63.2461C37.0693 63.2005 36.6204 63.1117 36.2832 62.9795C35.946 62.8473 35.6156 62.6491 35.292 62.3848C34.973 62.1159 34.7064 61.806 34.4922 61.4551L35.2236 60.9014C35.8571 61.7399 36.6592 62.207 37.6299 62.3027V58.0713C36.9144 57.7204 36.4609 57.4811 36.2695 57.3535C35.8822 57.0892 35.5951 56.7952 35.4082 56.4717C35.2214 56.1481 35.1279 55.7744 35.1279 55.3506C35.1279 54.9404 35.2305 54.5599 35.4355 54.209C35.6406 53.8581 35.9186 53.5732 36.2695 53.3545C36.625 53.1357 37.0785 52.999 37.6299 52.9443V52.2402ZM37.6299 53.8945C37.2881 53.9219 37.0124 53.9993 36.8027 54.127C36.5931 54.25 36.4268 54.4186 36.3037 54.6328C36.1852 54.8424 36.126 55.0749 36.126 55.3301C36.126 55.6582 36.2217 55.9362 36.4131 56.1641C36.6683 56.474 37.0739 56.7542 37.6299 57.0049V53.8945ZM38.5254 62.2754C39.0768 62.1979 39.5166 61.9974 39.8447 61.6738C40.1774 61.3503 40.3438 60.988 40.3438 60.5869C40.3438 60.195 40.2161 59.8327 39.9609 59.5C39.7103 59.1673 39.2318 58.8118 38.5254 58.4336V62.2754ZM44.3564 52.9443H46.332V63H45.334V53.9287H43.7549L44.3564 52.9443ZM56.415 52.9443V53.9014H52.833L52.334 56.6426C52.7715 56.515 53.1657 56.4512 53.5166 56.4512C54.4326 56.4512 55.1868 56.7588 55.7793 57.374C56.3763 57.9847 56.6748 58.7686 56.6748 59.7256C56.6748 60.3864 56.5221 60.9925 56.2168 61.5439C55.9115 62.0954 55.4967 62.5192 54.9727 62.8154C54.4531 63.1071 53.8516 63.2529 53.168 63.2529C52.3522 63.2529 51.6641 63.0046 51.1035 62.5078C50.543 62.0065 50.208 61.3594 50.0986 60.5664H51.1309C51.2083 60.9538 51.3382 61.2682 51.5205 61.5098C51.7074 61.7513 51.9535 61.9473 52.2588 62.0977C52.5687 62.2435 52.8923 62.3164 53.2295 62.3164C53.8903 62.3164 54.4577 62.0658 54.9316 61.5645C55.4056 61.0632 55.6426 60.4365 55.6426 59.6846C55.6426 59.0055 55.4284 58.4541 55 58.0303C54.5716 57.6064 53.9997 57.3945 53.2842 57.3945C52.6917 57.3945 51.974 57.5745 51.1309 57.9346L52.0605 52.9443H56.415ZM37.6299 102.24H38.5254V102.985C38.972 103.067 39.3525 103.213 39.667 103.423C39.986 103.632 40.2913 103.942 40.583 104.353L39.8447 104.947C39.4938 104.405 39.054 104.077 38.5254 103.963V107.374C39.7194 108.003 40.4622 108.513 40.7539 108.905C41.1276 109.407 41.3145 109.96 41.3145 110.566C41.3145 111.068 41.1755 111.528 40.8975 111.947C40.624 112.362 40.2526 112.686 39.7832 112.918C39.4779 113.068 39.0586 113.178 38.5254 113.246V115.386H37.6299V113.246C37.0693 113.201 36.6204 113.112 36.2832 112.979C35.946 112.847 35.6156 112.649 35.292 112.385C34.973 112.116 34.7064 111.806 34.4922 111.455L35.2236 110.901C35.8571 111.74 36.6592 112.207 37.6299 112.303V108.071C36.9144 107.72 36.4609 107.481 36.2695 107.354C35.8822 107.089 35.5951 106.795 35.4082 106.472C35.2214 106.148 35.1279 105.774 35.1279 105.351C35.1279 104.94 35.2305 104.56 35.4355 104.209C35.6406 103.858 35.9186 103.573 36.2695 103.354C36.625 103.136 37.0785 102.999 37.6299 102.944V102.24ZM37.6299 103.895C37.2881 103.922 37.0124 103.999 36.8027 104.127C36.5931 104.25 36.4268 104.419 36.3037 104.633C36.1852 104.842 36.126 105.075 36.126 105.33C36.126 105.658 36.2217 105.936 36.4131 106.164C36.6683 106.474 37.0739 106.754 37.6299 107.005V103.895ZM38.5254 112.275C39.0768 112.198 39.5166 111.997 39.8447 111.674C40.1774 111.35 40.3438 110.988 40.3438 110.587C40.3438 110.195 40.2161 109.833 39.9609 109.5C39.7103 109.167 39.2318 108.812 38.5254 108.434V112.275ZM44.3564 102.944H46.332V113H45.334V103.929H43.7549L44.3564 102.944ZM49.9756 107.976C49.9756 106.649 50.1169 105.624 50.3994 104.899C50.6865 104.175 51.0898 103.626 51.6094 103.252C52.1289 102.878 52.71 102.691 53.3525 102.691C54.0042 102.691 54.5944 102.881 55.123 103.259C55.6517 103.632 56.0687 104.195 56.374 104.947C56.6839 105.699 56.8389 106.709 56.8389 107.976C56.8389 109.238 56.6862 110.243 56.3809 110.99C56.0801 111.738 55.6631 112.303 55.1299 112.686C54.5967 113.064 54.0042 113.253 53.3525 113.253C52.71 113.253 52.1312 113.068 51.6162 112.699C51.1012 112.33 50.6979 111.781 50.4062 111.052C50.1191 110.318 49.9756 109.293 49.9756 107.976ZM50.9258 107.996C50.9258 109.131 51.026 109.99 51.2266 110.573C51.4316 111.152 51.7324 111.592 52.1289 111.893C52.5254 112.193 52.9447 112.344 53.3867 112.344C53.8333 112.344 54.2503 112.198 54.6377 111.906C55.0251 111.61 55.319 111.168 55.5195 110.58C55.7702 109.865 55.8955 109.003 55.8955 107.996C55.8955 106.984 55.7839 106.157 55.5605 105.515C55.3372 104.868 55.0273 104.396 54.6309 104.1C54.2389 103.799 53.8242 103.648 53.3867 103.648C52.9401 103.648 52.5208 103.799 52.1289 104.1C51.737 104.396 51.4385 104.836 51.2334 105.419C51.0283 105.998 50.9258 106.857 50.9258 107.996ZM37.6299 152.24H38.5254V152.985C38.972 153.067 39.3525 153.213 39.667 153.423C39.986 153.632 40.2913 153.942 40.583 154.353L39.8447 154.947C39.4938 154.405 39.054 154.077 38.5254 153.963V157.374C39.7194 158.003 40.4622 158.513 40.7539 158.905C41.1276 159.407 41.3145 159.96 41.3145 160.566C41.3145 161.068 41.1755 161.528 40.8975 161.947C40.624 162.362 40.2526 162.686 39.7832 162.918C39.4779 163.068 39.0586 163.178 38.5254 163.246V165.386H37.6299V163.246C37.0693 163.201 36.6204 163.112 36.2832 162.979C35.946 162.847 35.6156 162.649 35.292 162.385C34.973 162.116 34.7064 161.806 34.4922 161.455L35.2236 160.901C35.8571 161.74 36.6592 162.207 37.6299 162.303V158.071C36.9144 157.72 36.4609 157.481 36.2695 157.354C35.8822 157.089 35.5951 156.795 35.4082 156.472C35.2214 156.148 35.1279 155.774 35.1279 155.351C35.1279 154.94 35.2305 154.56 35.4355 154.209C35.6406 153.858 35.9186 153.573 36.2695 153.354C36.625 153.136 37.0785 152.999 37.6299 152.944V152.24ZM37.6299 153.895C37.2881 153.922 37.0124 153.999 36.8027 154.127C36.5931 154.25 36.4268 154.419 36.3037 154.633C36.1852 154.842 36.126 155.075 36.126 155.33C36.126 155.658 36.2217 155.936 36.4131 156.164C36.6683 156.474 37.0739 156.754 37.6299 157.005V153.895ZM38.5254 162.275C39.0768 162.198 39.5166 161.997 39.8447 161.674C40.1774 161.35 40.3438 160.988 40.3438 160.587C40.3438 160.195 40.2161 159.833 39.9609 159.5C39.7103 159.167 39.2318 158.812 38.5254 158.434V162.275ZM48.6494 152.944V153.901H45.0674L44.5684 156.643C45.0059 156.515 45.4001 156.451 45.751 156.451C46.667 156.451 47.4212 156.759 48.0137 157.374C48.6107 157.985 48.9092 158.769 48.9092 159.726C48.9092 160.386 48.7565 160.993 48.4512 161.544C48.1458 162.095 47.7311 162.519 47.207 162.815C46.6875 163.107 46.0859 163.253 45.4023 163.253C44.5866 163.253 43.8984 163.005 43.3379 162.508C42.7773 162.007 42.4424 161.359 42.333 160.566H43.3652C43.4427 160.954 43.5726 161.268 43.7549 161.51C43.9417 161.751 44.1878 161.947 44.4932 162.098C44.8031 162.243 45.1266 162.316 45.4639 162.316C46.1247 162.316 46.6921 162.066 47.166 161.564C47.64 161.063 47.877 160.437 47.877 159.685C47.877 159.006 47.6628 158.454 47.2344 158.03C46.806 157.606 46.234 157.395 45.5186 157.395C44.9261 157.395 44.2083 157.575 43.3652 157.935L44.2949 152.944H48.6494ZM37.6299 202.24H38.5254V202.985C38.972 203.067 39.3525 203.213 39.667 203.423C39.986 203.632 40.2913 203.942 40.583 204.353L39.8447 204.947C39.4938 204.405 39.054 204.077 38.5254 203.963V207.374C39.7194 208.003 40.4622 208.513 40.7539 208.905C41.1276 209.407 41.3145 209.96 41.3145 210.566C41.3145 211.068 41.1755 211.528 40.8975 211.947C40.624 212.362 40.2526 212.686 39.7832 212.918C39.4779 213.068 39.0586 213.178 38.5254 213.246V215.386H37.6299V213.246C37.0693 213.201 36.6204 213.112 36.2832 212.979C35.946 212.847 35.6156 212.649 35.292 212.385C34.973 212.116 34.7064 211.806 34.4922 211.455L35.2236 210.901C35.8571 211.74 36.6592 212.207 37.6299 212.303V208.071C36.9144 207.72 36.4609 207.481 36.2695 207.354C35.8822 207.089 35.5951 206.795 35.4082 206.472C35.2214 206.148 35.1279 205.774 35.1279 205.351C35.1279 204.94 35.2305 204.56 35.4355 204.209C35.6406 203.858 35.9186 203.573 36.2695 203.354C36.625 203.136 37.0785 202.999 37.6299 202.944V202.24ZM37.6299 203.895C37.2881 203.922 37.0124 203.999 36.8027 204.127C36.5931 204.25 36.4268 204.419 36.3037 204.633C36.1852 204.842 36.126 205.075 36.126 205.33C36.126 205.658 36.2217 205.936 36.4131 206.164C36.6683 206.474 37.0739 206.754 37.6299 207.005V203.895ZM38.5254 212.275C39.0768 212.198 39.5166 211.997 39.8447 211.674C40.1774 211.35 40.3438 210.988 40.3438 210.587C40.3438 210.195 40.2161 209.833 39.9609 209.5C39.7103 209.167 39.2318 208.812 38.5254 208.434V212.275ZM42.21 207.976C42.21 206.649 42.3512 205.624 42.6338 204.899C42.9209 204.175 43.3242 203.626 43.8438 203.252C44.3633 202.878 44.9443 202.691 45.5869 202.691C46.2386 202.691 46.8288 202.881 47.3574 203.259C47.8861 203.632 48.3031 204.195 48.6084 204.947C48.9183 205.699 49.0732 206.709 49.0732 207.976C49.0732 209.238 48.9206 210.243 48.6152 210.99C48.3145 211.738 47.8975 212.303 47.3643 212.686C46.8311 213.064 46.2386 213.253 45.5869 213.253C44.9443 213.253 44.3656 213.068 43.8506 212.699C43.3356 212.33 42.9323 211.781 42.6406 211.052C42.3535 210.318 42.21 209.293 42.21 207.976ZM43.1602 207.996C43.1602 209.131 43.2604 209.99 43.4609 210.573C43.666 211.152 43.9668 211.592 44.3633 211.893C44.7598 212.193 45.179 212.344 45.6211 212.344C46.0677 212.344 46.4847 212.198 46.8721 211.906C47.2594 211.61 47.5534 211.168 47.7539 210.58C48.0046 209.865 48.1299 209.003 48.1299 207.996C48.1299 206.984 48.0182 206.157 47.7949 205.515C47.5716 204.868 47.2617 204.396 46.8652 204.1C46.4733 203.799 46.0586 203.648 45.6211 203.648C45.1745 203.648 44.7552 203.799 44.3633 204.1C43.9714 204.396 43.6729 204.836 43.4678 205.419C43.2627 205.998 43.1602 206.857 43.1602 207.996Z" fill="#2B1801"/>
<path d="M115.501 222.944H117.477V233H116.479V223.929H114.899L115.501 222.944ZM121.12 228.803H124.88V229.637H121.12V228.803ZM126.944 226.096H125.98C126.008 225.102 126.338 224.286 126.972 223.648C127.61 223.01 128.396 222.691 129.33 222.691C130.255 222.691 131.003 222.99 131.572 223.587C132.146 224.184 132.434 224.888 132.434 225.699C132.434 226.269 132.297 226.804 132.023 227.306C131.75 227.802 131.219 228.477 130.431 229.329L127.929 232.029H132.57V233H125.741L129.583 228.851C130.362 228.017 130.868 227.399 131.101 226.998C131.338 226.592 131.456 226.166 131.456 225.72C131.456 225.155 131.244 224.669 130.82 224.264C130.401 223.854 129.886 223.648 129.275 223.648C128.633 223.648 128.097 223.863 127.669 224.291C127.245 224.719 127.004 225.321 126.944 226.096Z" fill="#2B1801"/>
<path d="M93 103C93 100.239 95.2386 98 98 98H148C150.761 98 153 100.239 153 103V205H93V103Z" fill="#FFB635"/>
<path d="M106.541 83.0088H107.372V83.7007C107.787 83.7769 108.14 83.9123 108.432 84.1069C108.728 84.3016 109.012 84.5894 109.283 84.9702L108.597 85.5225C108.271 85.0189 107.863 84.7142 107.372 84.6084V87.7759C108.481 88.3599 109.171 88.8338 109.441 89.1978C109.788 89.6632 109.962 90.1774 109.962 90.7402C109.962 91.2057 109.833 91.6331 109.575 92.0225C109.321 92.4076 108.976 92.708 108.54 92.9238C108.257 93.0635 107.867 93.165 107.372 93.2285V95.2153H106.541V93.2285C106.02 93.1862 105.603 93.1037 105.29 92.981C104.977 92.8582 104.67 92.6742 104.37 92.4287C104.073 92.179 103.826 91.8913 103.627 91.5654L104.306 91.0513C104.894 91.8299 105.639 92.2637 106.541 92.3525V88.4233C105.876 88.0975 105.455 87.8753 105.277 87.7568C104.918 87.5114 104.651 87.2384 104.478 86.938C104.304 86.6375 104.217 86.2905 104.217 85.897C104.217 85.5161 104.312 85.1628 104.503 84.8369C104.693 84.5111 104.951 84.2466 105.277 84.0435C105.607 83.8403 106.028 83.7134 106.541 83.6626V83.0088ZM106.541 84.5449C106.223 84.5703 105.967 84.6423 105.772 84.7607C105.578 84.875 105.423 85.0316 105.309 85.2305C105.199 85.4251 105.144 85.641 105.144 85.8779C105.144 86.1826 105.233 86.4408 105.411 86.6523C105.648 86.9401 106.024 87.2004 106.541 87.4331V84.5449ZM107.372 92.3271C107.884 92.2552 108.292 92.069 108.597 91.7686C108.906 91.4681 109.061 91.1317 109.061 90.7593C109.061 90.3953 108.942 90.0589 108.705 89.75C108.472 89.4411 108.028 89.111 107.372 88.7598V92.3271ZM112.787 83.6626H114.621V93H113.694V84.5767H112.228L112.787 83.6626ZM119.998 83.6626H121.832V93H120.905V84.5767H119.439L119.998 83.6626ZM126.771 91.6035C126.986 91.6035 127.17 91.6797 127.323 91.832C127.475 91.9844 127.551 92.1706 127.551 92.3906C127.551 92.6064 127.475 92.7926 127.323 92.9492C127.17 93.1016 126.986 93.1777 126.771 93.1777C126.555 93.1777 126.371 93.1016 126.218 92.9492C126.066 92.7926 125.99 92.6064 125.99 92.3906C125.99 92.1706 126.066 91.9844 126.218 91.832C126.371 91.6797 126.555 91.6035 126.771 91.6035ZM133.943 83.4277H134.134V89.9341H135.264V90.8291H134.134V93H133.201V90.8291H128.738L133.943 83.4277ZM133.201 89.9341V86.043L130.452 89.9341H133.201ZM140.386 83.4277L141.154 83.9292L138.634 87.7505C138.973 87.6362 139.29 87.5791 139.586 87.5791C140.327 87.5791 140.955 87.8478 141.472 88.3853C141.988 88.9185 142.246 89.5765 142.246 90.3594C142.246 90.8968 142.121 91.3835 141.872 91.8193C141.622 92.251 141.266 92.5959 140.805 92.854C140.348 93.1079 139.855 93.2349 139.326 93.2349C138.814 93.2349 138.338 93.1121 137.898 92.8667C137.462 92.617 137.119 92.2679 136.87 91.8193C136.62 91.3708 136.495 90.8905 136.495 90.3784C136.495 89.9976 136.571 89.5977 136.724 89.1787C136.88 88.7555 137.157 88.2477 137.555 87.6553L140.386 83.4277ZM139.364 88.3979C138.823 88.3979 138.359 88.5905 137.974 88.9756C137.593 89.3564 137.403 89.8198 137.403 90.3657C137.403 90.9074 137.593 91.3708 137.974 91.7559C138.359 92.1367 138.823 92.3271 139.364 92.3271C139.906 92.3271 140.367 92.1367 140.748 91.7559C141.133 91.3708 141.326 90.9074 141.326 90.3657C141.326 89.8198 141.133 89.3564 140.748 88.9756C140.367 88.5905 139.906 88.3979 139.364 88.3979Z" fill="#7E7E7E"/>
<path d="M236 108C236 105.239 238.239 103 241 103H291C293.761 103 296 105.239 296 108V205H236V108Z" fill="#FFB635"/>
<path d="M249.541 88.0088H250.372V88.7007C250.787 88.7769 251.14 88.9123 251.432 89.1069C251.728 89.3016 252.012 89.5894 252.283 89.9702L251.597 90.5225C251.271 90.0189 250.863 89.7142 250.372 89.6084V92.7759C251.481 93.3599 252.171 93.8338 252.441 94.1978C252.788 94.6632 252.962 95.1774 252.962 95.7402C252.962 96.2057 252.833 96.6331 252.575 97.0225C252.321 97.4076 251.976 97.708 251.54 97.9238C251.257 98.0635 250.867 98.165 250.372 98.2285V100.215H249.541V98.2285C249.02 98.1862 248.603 98.1037 248.29 97.981C247.977 97.8582 247.67 97.6742 247.37 97.4287C247.073 97.179 246.826 96.8913 246.627 96.5654L247.306 96.0513C247.894 96.8299 248.639 97.2637 249.541 97.3525V93.4233C248.876 93.0975 248.455 92.8753 248.277 92.7568C247.918 92.5114 247.651 92.2384 247.478 91.938C247.304 91.6375 247.217 91.2905 247.217 90.897C247.217 90.5161 247.312 90.1628 247.503 89.8369C247.693 89.5111 247.951 89.2466 248.277 89.0435C248.607 88.8403 249.028 88.7134 249.541 88.6626V88.0088ZM249.541 89.5449C249.223 89.5703 248.967 89.6423 248.772 89.7607C248.578 89.875 248.423 90.0316 248.309 90.2305C248.199 90.4251 248.144 90.641 248.144 90.8779C248.144 91.1826 248.233 91.4408 248.411 91.6523C248.648 91.9401 249.024 92.2004 249.541 92.4331V89.5449ZM250.372 97.3271C250.884 97.2552 251.292 97.069 251.597 96.7686C251.906 96.4681 252.061 96.1317 252.061 95.7593C252.061 95.3953 251.942 95.0589 251.705 94.75C251.472 94.4411 251.028 94.111 250.372 93.7598V97.3271ZM255.787 88.6626H257.621V98H256.694V89.5767H255.228L255.787 88.6626ZM262.998 88.6626H264.832V98H263.905V89.5767H262.439L262.998 88.6626ZM269.771 96.6035C269.986 96.6035 270.17 96.6797 270.323 96.832C270.475 96.9844 270.551 97.1706 270.551 97.3906C270.551 97.6064 270.475 97.7926 270.323 97.9492C270.17 98.1016 269.986 98.1777 269.771 98.1777C269.555 98.1777 269.371 98.1016 269.218 97.9492C269.066 97.7926 268.99 97.6064 268.99 97.3906C268.99 97.1706 269.066 96.9844 269.218 96.832C269.371 96.6797 269.555 96.6035 269.771 96.6035ZM272.913 91.5889H272.018C272.043 90.6663 272.35 89.9089 272.938 89.3164C273.53 88.724 274.26 88.4277 275.128 88.4277C275.987 88.4277 276.681 88.7049 277.21 89.2593C277.743 89.8136 278.01 90.4674 278.01 91.2207C278.01 91.7497 277.883 92.2469 277.629 92.7124C277.375 93.1737 276.882 93.8 276.15 94.5913L273.827 97.0986H278.137V98H271.795L275.363 94.147C276.086 93.3726 276.556 92.7992 276.772 92.4268C276.992 92.0501 277.102 91.6545 277.102 91.2397C277.102 90.715 276.905 90.2643 276.512 89.8877C276.122 89.5068 275.644 89.3164 275.077 89.3164C274.48 89.3164 273.983 89.5153 273.585 89.9131C273.192 90.3109 272.968 90.8695 272.913 91.5889ZM280.339 90.8271H279.387C279.561 90.057 279.893 89.4645 280.384 89.0498C280.875 88.6351 281.454 88.4277 282.123 88.4277C282.61 88.4277 283.062 88.5399 283.481 88.7642C283.905 88.9842 284.23 89.2826 284.459 89.6592C284.692 90.0358 284.808 90.4294 284.808 90.8398C284.808 91.6439 284.408 92.2808 283.608 92.7505C284.057 92.9325 284.425 93.1991 284.713 93.5503C285.119 94.0454 285.322 94.5998 285.322 95.2134C285.322 95.7424 285.183 96.248 284.903 96.7305C284.624 97.2087 284.243 97.5789 283.761 97.8413C283.278 98.1037 282.739 98.2349 282.142 98.2349C281.338 98.2349 280.667 98.0042 280.13 97.543C279.592 97.0775 279.241 96.3962 279.076 95.499H279.99C280.151 96.1042 280.382 96.5422 280.682 96.813C281.067 97.1558 281.558 97.3271 282.155 97.3271C282.832 97.3271 283.376 97.124 283.786 96.7178C284.197 96.3115 284.402 95.8354 284.402 95.2896C284.402 94.9256 284.298 94.585 284.091 94.2676C283.888 93.9502 283.613 93.7111 283.266 93.5503C282.923 93.3895 282.39 93.29 281.666 93.252V92.395C282.093 92.395 282.483 92.321 282.834 92.1729C283.185 92.0205 283.439 91.828 283.596 91.5952C283.757 91.3625 283.837 91.1086 283.837 90.8335C283.837 90.4272 283.674 90.076 283.348 89.7798C283.027 89.4836 282.618 89.3354 282.123 89.3354C281.721 89.3354 281.374 89.4497 281.082 89.6782C280.79 89.9025 280.542 90.2855 280.339 90.8271Z" fill="#7E7E7E"/>
<path d="M263.97 225.275H262.944C263.131 224.446 263.489 223.808 264.018 223.361C264.546 222.915 265.171 222.691 265.891 222.691C266.415 222.691 266.902 222.812 267.354 223.054C267.809 223.291 268.16 223.612 268.406 224.018C268.657 224.423 268.782 224.847 268.782 225.289C268.782 226.155 268.352 226.841 267.49 227.347C267.973 227.543 268.37 227.83 268.68 228.208C269.117 228.741 269.336 229.338 269.336 229.999C269.336 230.569 269.186 231.113 268.885 231.633C268.584 232.148 268.174 232.547 267.654 232.829C267.135 233.112 266.554 233.253 265.911 233.253C265.045 233.253 264.323 233.005 263.744 232.508C263.165 232.007 262.787 231.273 262.609 230.307H263.594C263.767 230.958 264.015 231.43 264.339 231.722C264.754 232.091 265.282 232.275 265.925 232.275C266.654 232.275 267.24 232.057 267.682 231.619C268.124 231.182 268.345 230.669 268.345 230.081C268.345 229.689 268.233 229.322 268.01 228.98C267.791 228.639 267.495 228.381 267.121 228.208C266.752 228.035 266.178 227.928 265.398 227.887V226.964C265.859 226.964 266.278 226.884 266.656 226.725C267.035 226.561 267.308 226.353 267.477 226.103C267.65 225.852 267.736 225.578 267.736 225.282C267.736 224.845 267.561 224.466 267.21 224.147C266.864 223.828 266.424 223.669 265.891 223.669C265.458 223.669 265.084 223.792 264.77 224.038C264.455 224.28 264.188 224.692 263.97 225.275Z" fill="#2B1801"/>
<path d="M379 118C379 115.239 381.239 113 384 113H434C436.761 113 439 115.239 439 118V205H379V118Z" fill="#FFB635"/>
<path d="M392.541 98.0088H393.372V98.7007C393.787 98.7769 394.14 98.9123 394.432 99.1069C394.728 99.3016 395.012 99.5894 395.283 99.9702L394.597 100.522C394.271 100.019 393.863 99.7142 393.372 99.6084V102.776C394.481 103.36 395.171 103.834 395.441 104.198C395.788 104.663 395.962 105.177 395.962 105.74C395.962 106.206 395.833 106.633 395.575 107.022C395.321 107.408 394.976 107.708 394.54 107.924C394.257 108.063 393.867 108.165 393.372 108.229V110.215H392.541V108.229C392.02 108.186 391.603 108.104 391.29 107.981C390.977 107.858 390.67 107.674 390.37 107.429C390.073 107.179 389.826 106.891 389.627 106.565L390.306 106.051C390.894 106.83 391.639 107.264 392.541 107.353V103.423C391.876 103.097 391.455 102.875 391.277 102.757C390.918 102.511 390.651 102.238 390.478 101.938C390.304 101.638 390.217 101.291 390.217 100.897C390.217 100.516 390.312 100.163 390.503 99.8369C390.693 99.5111 390.951 99.2466 391.277 99.0435C391.607 98.8403 392.028 98.7134 392.541 98.6626V98.0088ZM392.541 99.5449C392.223 99.5703 391.967 99.6423 391.772 99.7607C391.578 99.875 391.423 100.032 391.309 100.23C391.199 100.425 391.144 100.641 391.144 100.878C391.144 101.183 391.233 101.441 391.411 101.652C391.648 101.94 392.024 102.2 392.541 102.433V99.5449ZM393.372 107.327C393.884 107.255 394.292 107.069 394.597 106.769C394.906 106.468 395.061 106.132 395.061 105.759C395.061 105.395 394.942 105.059 394.705 104.75C394.472 104.441 394.028 104.111 393.372 103.76V107.327ZM398.787 98.6626H400.621V108H399.694V99.5767H398.228L398.787 98.6626ZM404.004 103.334C404.004 102.103 404.136 101.151 404.398 100.478C404.665 99.8052 405.039 99.2952 405.521 98.9482C406.004 98.6012 406.543 98.4277 407.14 98.4277C407.745 98.4277 408.293 98.6034 408.784 98.9546C409.275 99.3016 409.662 99.8242 409.946 100.522C410.234 101.221 410.377 102.158 410.377 103.334C410.377 104.507 410.236 105.44 409.952 106.134C409.673 106.828 409.286 107.353 408.791 107.708C408.295 108.059 407.745 108.235 407.14 108.235C406.543 108.235 406.006 108.063 405.528 107.721C405.05 107.378 404.675 106.868 404.404 106.191C404.138 105.51 404.004 104.557 404.004 103.334ZM404.887 103.354C404.887 104.407 404.98 105.205 405.166 105.747C405.356 106.284 405.636 106.692 406.004 106.972C406.372 107.251 406.761 107.391 407.172 107.391C407.587 107.391 407.974 107.255 408.333 106.984C408.693 106.709 408.966 106.299 409.152 105.753C409.385 105.089 409.501 104.289 409.501 103.354C409.501 102.414 409.398 101.646 409.19 101.049C408.983 100.448 408.695 100.01 408.327 99.7354C407.963 99.4561 407.578 99.3164 407.172 99.3164C406.757 99.3164 406.368 99.4561 406.004 99.7354C405.64 100.01 405.363 100.419 405.172 100.96C404.982 101.498 404.887 102.296 404.887 103.354ZM412.771 106.604C412.986 106.604 413.17 106.68 413.323 106.832C413.475 106.984 413.551 107.171 413.551 107.391C413.551 107.606 413.475 107.793 413.323 107.949C413.17 108.102 412.986 108.178 412.771 108.178C412.555 108.178 412.371 108.102 412.218 107.949C412.066 107.793 411.99 107.606 411.99 107.391C411.99 107.171 412.066 106.984 412.218 106.832C412.371 106.68 412.555 106.604 412.771 106.604ZM419.943 98.4277H420.134V104.934H421.264V105.829H420.134V108H419.201V105.829H414.738L419.943 98.4277ZM419.201 104.934V101.043L416.452 104.934H419.201ZM422.032 103.334C422.032 102.103 422.163 101.151 422.425 100.478C422.692 99.8052 423.066 99.2952 423.549 98.9482C424.031 98.6012 424.571 98.4277 425.167 98.4277C425.773 98.4277 426.321 98.6034 426.812 98.9546C427.302 99.3016 427.69 99.8242 427.973 100.522C428.261 101.221 428.405 102.158 428.405 103.334C428.405 104.507 428.263 105.44 427.979 106.134C427.7 106.828 427.313 107.353 426.818 107.708C426.323 108.059 425.773 108.235 425.167 108.235C424.571 108.235 424.033 108.063 423.555 107.721C423.077 107.378 422.702 106.868 422.432 106.191C422.165 105.51 422.032 104.557 422.032 103.334ZM422.914 103.354C422.914 104.407 423.007 105.205 423.193 105.747C423.384 106.284 423.663 106.692 424.031 106.972C424.399 107.251 424.789 107.391 425.199 107.391C425.614 107.391 426.001 107.255 426.361 106.984C426.721 106.709 426.993 106.299 427.18 105.753C427.412 105.089 427.529 104.289 427.529 103.354C427.529 102.414 427.425 101.646 427.218 101.049C427.01 100.448 426.723 100.01 426.354 99.7354C425.991 99.4561 425.605 99.3164 425.199 99.3164C424.785 99.3164 424.395 99.4561 424.031 99.7354C423.667 100.01 423.39 100.419 423.2 100.96C423.009 101.498 422.914 102.296 422.914 103.354Z" fill="#7E7E7E"/>
<path d="M406.833 222.691H407.038V229.698H408.255V230.662H407.038V233H406.033V230.662H401.228L406.833 222.691ZM406.033 229.698V225.508L403.073 229.698H406.033ZM412.411 227.504V224.537H413.348V227.504H416.342V228.44H413.348V231.407H412.411V228.44H409.424V227.504H412.411Z" fill="#2B1801"/>
<path d="M10.3809 194.245L10.3809 192.529C10.3809 191.544 10.4238 190.88 10.5098 190.536C10.6309 190.044 10.8809 189.642 11.2598 189.329C11.6348 189.017 12.1074 188.861 12.6777 188.861C13.2519 188.861 13.7266 189.013 14.1016 189.318C14.4727 189.622 14.7227 190.042 14.8516 190.577C14.9453 190.968 14.9922 191.698 14.9922 192.769L14.9922 193.384L19 193.384L19 194.245L10.3809 194.245ZM11.2187 193.384L14.1484 193.384L14.166 191.925C14.166 191.335 14.1133 190.904 14.0078 190.63C13.8984 190.357 13.7246 190.142 13.4863 189.986C13.2441 189.829 12.9746 189.751 12.6777 189.751C12.3887 189.751 12.125 189.829 11.8867 189.986C11.6445 190.142 11.4727 190.349 11.3711 190.607C11.2695 190.861 11.2187 191.279 11.2187 191.861L11.2187 193.384ZM10.3809 186.491L10.3809 184.774C10.3809 183.817 10.4199 183.169 10.498 182.829C10.6152 182.317 10.8672 181.901 11.2539 181.581C11.6367 181.261 12.1094 181.1 12.6719 181.1C13.1406 181.1 13.5527 181.212 13.9082 181.434C14.2637 181.653 14.5332 181.968 14.7168 182.378C14.8965 182.788 14.9883 183.354 14.9922 184.077L19 180.977L19 182.044L14.9922 185.138L14.9922 185.63L19 185.63L19 186.491L10.3809 186.491ZM11.2246 185.63L14.1543 185.63L14.166 184.147C14.166 183.573 14.1113 183.149 14.0019 182.876C13.8926 182.598 13.7187 182.384 13.4805 182.231C13.2383 182.075 12.9687 181.997 12.6719 181.997C12.3828 181.997 12.1211 182.075 11.8867 182.231C11.6484 182.388 11.4785 182.593 11.3769 182.846C11.2754 183.1 11.2246 183.522 11.2246 184.112L11.2246 185.63ZM10.3809 178.772L10.3809 177.911L19 177.911L19 178.772L10.3809 178.772ZM11.9805 167.303L12.5019 167.982C12.0137 168.357 11.6445 168.809 11.3945 169.336C11.1406 169.859 11.0137 170.436 11.0137 171.064C11.0137 171.752 11.1797 172.389 11.5117 172.975C11.8398 173.561 12.2832 174.016 12.8418 174.34C13.3965 174.66 14.0215 174.82 14.7168 174.82C15.7676 174.82 16.6445 174.461 17.3477 173.742C18.0508 173.02 18.4023 172.109 18.4023 171.012C18.4023 169.805 17.9297 168.795 16.9844 167.982L17.5 167.303C18.0469 167.732 18.4707 168.27 18.7715 168.914C19.0684 169.555 19.2168 170.271 19.2168 171.064C19.2168 172.572 18.7148 173.762 17.7109 174.633C16.8633 175.363 15.8398 175.729 14.6406 175.729C13.3789 175.729 12.3184 175.287 11.459 174.404C10.5957 173.518 10.1641 172.408 10.1641 171.076C10.1641 170.271 10.3242 169.545 10.6445 168.896C10.9609 168.248 11.4062 167.717 11.9805 167.303ZM10.3809 164.963L10.3809 160.023L11.2305 160.023L11.2305 164.101L13.9258 164.101L13.9258 160.058L14.7695 160.058L14.7695 164.101L18.1504 164.101L18.1504 160.058L19 160.058L19 164.963L10.3809 164.963ZM10.3809 154.013L10.3809 152.296C10.3809 151.311 10.4238 150.647 10.5098 150.304C10.6309 149.811 10.8809 149.409 11.2598 149.096C11.6348 148.784 12.1074 148.628 12.6777 148.628C13.2519 148.628 13.7266 148.78 14.1016 149.085C14.4727 149.389 14.7227 149.809 14.8516 150.345C14.9453 150.735 14.9922 151.466 14.9922 152.536L14.9922 153.151L19 153.151L19 154.013L10.3809 154.013ZM11.2187 153.151L14.1484 153.151L14.166 151.692C14.166 151.102 14.1133 150.671 14.0078 150.397C13.8984 150.124 13.7246 149.909 13.4863 149.753C13.2441 149.596 12.9746 149.518 12.6777 149.518C12.3887 149.518 12.125 149.596 11.8867 149.753C11.6445 149.909 11.4727 150.116 11.3711 150.374C11.2695 150.628 11.2187 151.046 11.2187 151.628L11.2187 153.151ZM10.3809 146.299L10.3809 141.36L11.2305 141.36L11.2305 145.438L13.9258 145.438L13.9258 141.395L14.7695 141.395L14.7695 145.438L18.1504 145.438L18.1504 141.395L19 141.395L19 146.299L10.3809 146.299ZM10.3809 139.225L10.3809 137.508C10.3809 136.551 10.4199 135.902 10.498 135.562C10.6152 135.051 10.8672 134.635 11.2539 134.314C11.6367 133.994 12.1094 133.834 12.6719 133.834C13.1406 133.834 13.5527 133.945 13.9082 134.168C14.2637 134.387 14.5332 134.701 14.7168 135.111C14.8965 135.521 14.9883 136.088 14.9922 136.811L19 133.711L19 134.777L14.9922 137.871L14.9922 138.363L19 138.363L19 139.225L10.3809 139.225ZM11.2246 138.363L14.1543 138.363L14.166 136.881C14.166 136.307 14.1113 135.883 14.0019 135.609C13.8926 135.332 13.7187 135.117 13.4805 134.965C13.2383 134.809 12.9687 134.73 12.6719 134.73C12.3828 134.73 12.1211 134.809 11.8867 134.965C11.6484 135.121 11.4785 135.326 11.3769 135.58C11.2754 135.834 11.2246 136.256 11.2246 136.846L11.2246 138.363ZM17.3945 128.345L16.9551 127.613C17.9043 127.097 18.3789 126.501 18.3789 125.825C18.3789 125.536 18.3125 125.265 18.1797 125.011C18.043 124.757 17.8613 124.564 17.6348 124.431C17.4082 124.298 17.168 124.232 16.9141 124.232C16.625 124.232 16.3418 124.329 16.0644 124.525C15.6816 124.794 15.2207 125.286 14.6816 126.001C14.1387 126.72 13.7461 127.167 13.5039 127.343C13.0977 127.648 12.6582 127.8 12.1855 127.8C11.8105 127.8 11.4687 127.71 11.1602 127.53C10.8516 127.351 10.6094 127.099 10.4336 126.775C10.2539 126.446 10.1641 126.091 10.1641 125.708C10.1641 125.302 10.2656 124.923 10.4687 124.571C10.668 124.216 11.0371 123.841 11.5762 123.446L12.1094 124.15C11.6797 124.474 11.3965 124.751 11.2598 124.982C11.123 125.208 11.0547 125.456 11.0547 125.726C11.0547 126.073 11.1601 126.359 11.3711 126.581C11.582 126.8 11.8418 126.909 12.1504 126.909C12.3379 126.909 12.5195 126.87 12.6953 126.792C12.8711 126.714 13.0625 126.571 13.2695 126.364C13.3789 126.251 13.666 125.88 14.1309 125.251C14.6816 124.505 15.1719 123.993 15.6016 123.716C16.0312 123.439 16.4629 123.3 16.8965 123.3C17.5215 123.3 18.0644 123.538 18.5254 124.015C18.9863 124.488 19.2168 125.064 19.2168 125.743C19.2168 126.267 19.0781 126.741 18.8008 127.167C18.5195 127.593 18.0508 127.986 17.3945 128.345ZM10.3809 120.872L10.3809 115.932L11.2305 115.932L11.2305 120.011L13.9258 120.011L13.9258 115.968L14.7695 115.968L14.7695 120.011L18.1504 120.011L18.1504 115.968L19 115.968L19 120.872L10.3809 120.872ZM10.3809 113.797L10.3809 112.08C10.3809 111.123 10.4199 110.475 10.498 110.135C10.6152 109.623 10.8672 109.207 11.2539 108.887C11.6367 108.567 12.1094 108.407 12.6719 108.407C13.1406 108.407 13.5527 108.518 13.9082 108.741C14.2637 108.959 14.5332 109.274 14.7168 109.684C14.8965 110.094 14.9883 110.661 14.9922 111.383L19 108.284L19 109.35L14.9922 112.444L14.9922 112.936L19 112.936L19 113.797L10.3809 113.797ZM11.2246 112.936L14.1543 112.936L14.166 111.454C14.166 110.879 14.1113 110.455 14.0019 110.182C13.8926 109.905 13.7187 109.69 13.4805 109.538C13.2383 109.381 12.9687 109.303 12.6719 109.303C12.3828 109.303 12.1211 109.381 11.8867 109.538C11.6484 109.694 11.4785 109.899 11.3769 110.153C11.2754 110.407 11.2246 110.829 11.2246 111.418L11.2246 112.936ZM10.3809 106.611L10.3809 105.674L17.043 102.82L10.3809 99.9141L10.3809 98.9766L19 102.727L19 102.914L10.3809 106.611ZM10.3809 97.0523L10.3809 96.191L19 96.191L19 97.0523L10.3809 97.0523ZM19 93.6047L10.3809 93.6047L10.3809 93.4172L16.9785 87.6867L10.3809 87.6867L10.3809 86.8371L19 86.8371L19 87.0305L12.4844 92.7141L19 92.7141L19 93.6047ZM11.8281 75.8133L12.4609 76.4813C11.9883 76.9617 11.6309 77.4891 11.3887 78.0633C11.1426 78.6336 11.0195 79.1902 11.0195 79.7332C11.0195 80.409 11.1855 81.0535 11.5176 81.6668C11.8496 82.2762 12.3008 82.7488 12.8711 83.0848C13.4375 83.4207 14.0371 83.5887 14.6699 83.5887C15.3184 83.5887 15.9355 83.4149 16.5215 83.0672C17.1035 82.7195 17.5625 82.2391 17.8984 81.6258C18.2305 81.0125 18.3965 80.3406 18.3965 79.6102C18.3965 78.7234 18.1465 77.9734 17.6465 77.3602C17.1465 76.7469 16.498 76.3836 15.7012 76.2703L15.7012 79.0184L14.8691 79.0184L14.8691 75.3035C16.2012 75.3113 17.2598 75.7078 18.0449 76.493C18.8262 77.2742 19.2168 78.3211 19.2168 79.6336C19.2168 81.2274 18.6738 82.4891 17.5879 83.4188C16.7519 84.1336 15.7851 84.491 14.6875 84.491C13.8711 84.491 13.1113 84.2859 12.4082 83.8758C11.7051 83.4656 11.1562 82.9031 10.7617 82.1883C10.3633 81.4734 10.1641 80.6649 10.1641 79.7625C10.1641 79.032 10.2969 78.3445 10.5625 77.7C10.8242 77.0555 11.2461 76.4266 11.8281 75.8133Z" fill="#7E7E7E"/>
<path d="M162.513 254V245.381H162.7L168.431 251.979V245.381H169.28V254H169.087L163.404 247.484V254H162.513ZM172.019 245.381H172.88V250.584C172.88 251.201 172.892 251.586 172.916 251.738C172.959 252.078 173.058 252.363 173.214 252.594C173.371 252.82 173.611 253.012 173.935 253.168C174.259 253.32 174.586 253.396 174.914 253.396C175.199 253.396 175.472 253.336 175.734 253.215C175.996 253.094 176.214 252.926 176.39 252.711C176.566 252.496 176.695 252.236 176.777 251.932C176.836 251.713 176.865 251.264 176.865 250.584V245.381H177.726V250.584C177.726 251.354 177.65 251.977 177.498 252.453C177.349 252.926 177.048 253.338 176.595 253.689C176.146 254.041 175.601 254.217 174.961 254.217C174.265 254.217 173.67 254.051 173.173 253.719C172.677 253.387 172.345 252.947 172.177 252.4C172.072 252.064 172.019 251.459 172.019 250.584V245.381ZM180.061 254L181.285 245.381H181.426L184.93 252.453L188.398 245.381H188.539L189.775 254H188.926L188.082 247.836L185.035 254H184.818L181.73 247.789L180.893 254H180.061ZM192.104 245.381H193.803C194.487 245.381 195.012 245.463 195.379 245.627C195.746 245.787 196.036 246.035 196.246 246.371C196.461 246.707 196.569 247.08 196.569 247.49C196.569 247.873 196.475 248.223 196.288 248.539C196.1 248.852 195.825 249.105 195.461 249.301C195.911 249.453 196.256 249.633 196.498 249.84C196.741 250.043 196.928 250.291 197.061 250.584C197.198 250.873 197.266 251.188 197.266 251.527C197.266 252.219 197.012 252.805 196.504 253.285C196 253.762 195.323 254 194.471 254H192.104V245.381ZM192.948 246.225V248.984H193.44C194.038 248.984 194.477 248.93 194.758 248.82C195.039 248.707 195.262 248.531 195.426 248.293C195.59 248.051 195.672 247.783 195.672 247.49C195.672 247.096 195.534 246.787 195.256 246.564C194.983 246.338 194.545 246.225 193.944 246.225H192.948ZM192.948 249.852V253.156H194.014C194.643 253.156 195.104 253.096 195.397 252.975C195.69 252.85 195.924 252.656 196.1 252.395C196.28 252.133 196.37 251.85 196.37 251.545C196.37 251.162 196.245 250.828 195.995 250.543C195.745 250.258 195.401 250.063 194.963 249.957C194.67 249.887 194.161 249.852 193.434 249.852H192.948ZM199.577 245.381H204.516V246.23H200.438V248.926H204.481V249.77H200.438V253.15H204.481V254H199.577V245.381ZM206.652 245.381H208.368C209.325 245.381 209.974 245.42 210.314 245.498C210.825 245.615 211.241 245.867 211.562 246.254C211.882 246.637 212.042 247.109 212.042 247.672C212.042 248.141 211.931 248.553 211.708 248.908C211.489 249.264 211.175 249.533 210.765 249.717C210.355 249.896 209.788 249.988 209.066 249.992L212.165 254H211.099L208.005 249.992H207.513V254H206.652V245.381ZM207.513 246.225V249.154L208.995 249.166C209.57 249.166 209.993 249.111 210.267 249.002C210.544 248.893 210.759 248.719 210.911 248.48C211.068 248.238 211.146 247.969 211.146 247.672C211.146 247.383 211.068 247.121 210.911 246.887C210.755 246.648 210.55 246.479 210.296 246.377C210.042 246.275 209.62 246.225 209.03 246.225H207.513ZM222.529 245.164C223.834 245.164 224.926 245.6 225.805 246.471C226.684 247.342 227.123 248.414 227.123 249.688C227.123 250.949 226.684 252.02 225.805 252.898C224.93 253.777 223.861 254.217 222.6 254.217C221.322 254.217 220.244 253.779 219.365 252.904C218.486 252.029 218.047 250.971 218.047 249.729C218.047 248.9 218.246 248.133 218.645 247.426C219.047 246.719 219.594 246.166 220.285 245.768C220.977 245.365 221.725 245.164 222.529 245.164ZM222.57 246.008C221.934 246.008 221.33 246.174 220.76 246.506C220.189 246.838 219.744 247.285 219.424 247.848C219.104 248.41 218.943 249.037 218.943 249.729C218.943 250.752 219.297 251.617 220.004 252.324C220.715 253.027 221.57 253.379 222.57 253.379C223.238 253.379 223.855 253.217 224.422 252.893C224.992 252.568 225.436 252.125 225.752 251.563C226.072 251 226.232 250.375 226.232 249.688C226.232 249.004 226.072 248.387 225.752 247.836C225.436 247.281 224.988 246.838 224.41 246.506C223.832 246.174 223.219 246.008 222.57 246.008ZM229.452 245.381H233.77V246.23H230.307V248.926H233.77V249.775H230.307V254H229.452V245.381ZM238.913 252.395L239.646 251.955C240.161 252.904 240.757 253.379 241.433 253.379C241.722 253.379 241.993 253.313 242.247 253.18C242.501 253.043 242.695 252.861 242.827 252.635C242.96 252.408 243.027 252.168 243.027 251.914C243.027 251.625 242.929 251.342 242.734 251.064C242.464 250.682 241.972 250.221 241.257 249.682C240.538 249.139 240.091 248.746 239.915 248.504C239.611 248.098 239.458 247.658 239.458 247.186C239.458 246.811 239.548 246.469 239.728 246.16C239.907 245.852 240.159 245.609 240.484 245.434C240.812 245.254 241.167 245.164 241.55 245.164C241.956 245.164 242.335 245.266 242.687 245.469C243.042 245.668 243.417 246.037 243.812 246.576L243.109 247.109C242.784 246.68 242.507 246.396 242.277 246.26C242.05 246.123 241.802 246.055 241.532 246.055C241.185 246.055 240.9 246.16 240.677 246.371C240.458 246.582 240.349 246.842 240.349 247.15C240.349 247.338 240.388 247.52 240.466 247.695C240.544 247.871 240.687 248.063 240.894 248.27C241.007 248.379 241.378 248.666 242.007 249.131C242.753 249.682 243.265 250.172 243.542 250.602C243.82 251.031 243.958 251.463 243.958 251.896C243.958 252.521 243.72 253.064 243.243 253.525C242.771 253.986 242.195 254.217 241.515 254.217C240.991 254.217 240.517 254.078 240.091 253.801C239.665 253.52 239.273 253.051 238.913 252.395ZM246.386 245.381H251.326V246.23H247.248V248.926H251.291V249.77H247.248V253.15H251.291V254H246.386V245.381ZM253.461 245.381H255.178C256.135 245.381 256.783 245.42 257.123 245.498C257.635 245.615 258.051 245.867 258.371 246.254C258.691 246.637 258.852 247.109 258.852 247.672C258.852 248.141 258.74 248.553 258.518 248.908C258.299 249.264 257.984 249.533 257.574 249.717C257.164 249.896 256.598 249.988 255.875 249.992L258.975 254H257.908L254.814 249.992H254.322V254H253.461V245.381ZM254.322 246.225V249.154L255.805 249.166C256.379 249.166 256.803 249.111 257.076 249.002C257.354 248.893 257.568 248.719 257.721 248.48C257.877 248.238 257.955 247.969 257.955 247.672C257.955 247.383 257.877 247.121 257.721 246.887C257.564 246.648 257.359 246.479 257.105 246.377C256.852 246.275 256.43 246.225 255.84 246.225H254.322ZM260.647 245.381H261.584L264.438 252.043L267.344 245.381H268.282L264.532 254H264.344L260.647 245.381ZM270.206 245.381H271.067V254H270.206V245.381ZM273.654 254V245.381H273.841L279.571 251.979V245.381H280.421V254H280.228L274.544 247.484V254H273.654ZM291.445 246.828L290.777 247.461C290.296 246.988 289.769 246.631 289.195 246.389C288.625 246.143 288.068 246.02 287.525 246.02C286.849 246.02 286.205 246.186 285.591 246.518C284.982 246.85 284.509 247.301 284.173 247.871C283.837 248.438 283.67 249.037 283.67 249.67C283.67 250.318 283.843 250.936 284.191 251.521C284.539 252.104 285.019 252.563 285.632 252.898C286.246 253.23 286.918 253.396 287.648 253.396C288.535 253.396 289.285 253.146 289.898 252.646C290.511 252.146 290.875 251.498 290.988 250.701H288.24V249.869H291.955C291.947 251.201 291.55 252.26 290.765 253.045C289.984 253.826 288.937 254.217 287.625 254.217C286.031 254.217 284.769 253.674 283.839 252.588C283.125 251.752 282.767 250.785 282.767 249.688C282.767 248.871 282.972 248.111 283.382 247.408C283.793 246.705 284.355 246.156 285.07 245.762C285.785 245.363 286.593 245.164 287.496 245.164C288.226 245.164 288.914 245.297 289.558 245.563C290.203 245.824 290.832 246.246 291.445 246.828ZM293.305 252.395L294.037 251.955C294.553 252.904 295.148 253.379 295.824 253.379C296.113 253.379 296.385 253.313 296.639 253.18C296.893 253.043 297.086 252.861 297.219 252.635C297.352 252.408 297.418 252.168 297.418 251.914C297.418 251.625 297.32 251.342 297.125 251.064C296.855 250.682 296.363 250.221 295.648 249.682C294.93 249.139 294.482 248.746 294.307 248.504C294.002 248.098 293.85 247.658 293.85 247.186C293.85 246.811 293.939 246.469 294.119 246.16C294.299 245.852 294.551 245.609 294.875 245.434C295.203 245.254 295.559 245.164 295.941 245.164C296.348 245.164 296.727 245.266 297.078 245.469C297.434 245.668 297.809 246.037 298.203 246.576L297.5 247.109C297.176 246.68 296.898 246.396 296.668 246.26C296.441 246.123 296.193 246.055 295.924 246.055C295.576 246.055 295.291 246.16 295.068 246.371C294.85 246.582 294.74 246.842 294.74 247.15C294.74 247.338 294.779 247.52 294.857 247.695C294.936 247.871 295.078 248.063 295.285 248.27C295.398 248.379 295.77 248.666 296.398 249.131C297.145 249.682 297.656 250.172 297.934 250.602C298.211 251.031 298.35 251.463 298.35 251.896C298.35 252.521 298.111 253.064 297.635 253.525C297.162 253.986 296.586 254.217 295.906 254.217C295.383 254.217 294.908 254.078 294.482 253.801C294.057 253.52 293.664 253.051 293.305 252.395ZM304.577 245.381H305.438V254H304.577V245.381ZM308.025 254V245.381H308.212L313.943 251.979V245.381H314.792V254H314.599L308.915 247.484V254H308.025ZM325.537 245.164C326.842 245.164 327.934 245.6 328.812 246.471C329.691 247.342 330.131 248.414 330.131 249.688C330.131 250.949 329.691 252.02 328.812 252.898C327.938 253.777 326.869 254.217 325.607 254.217C324.33 254.217 323.252 253.779 322.373 252.904C321.494 252.029 321.055 250.971 321.055 249.729C321.055 248.9 321.254 248.133 321.652 247.426C322.055 246.719 322.602 246.166 323.293 245.768C323.984 245.365 324.732 245.164 325.537 245.164ZM325.578 246.008C324.941 246.008 324.338 246.174 323.768 246.506C323.197 246.838 322.752 247.285 322.432 247.848C322.111 248.41 321.951 249.037 321.951 249.729C321.951 250.752 322.305 251.617 323.012 252.324C323.723 253.027 324.578 253.379 325.578 253.379C326.246 253.379 326.863 253.217 327.43 252.893C328 252.568 328.443 252.125 328.76 251.563C329.08 251 329.24 250.375 329.24 249.688C329.24 249.004 329.08 248.387 328.76 247.836C328.443 247.281 327.996 246.838 327.418 246.506C326.84 246.174 326.227 246.008 325.578 246.008ZM332.465 254V245.381H332.653L338.383 251.979V245.381H339.233V254H339.039L333.356 247.484V254H332.465ZM341.948 245.381H346.888V246.23H342.809V248.926H346.852V249.77H342.809V253.15H346.852V254H341.948V245.381ZM352.511 254L353.736 245.381H353.877L357.38 252.453L360.849 245.381H360.99L362.226 254H361.377L360.533 247.836L357.486 254H357.269L354.181 247.789L353.343 254H352.511ZM364.537 245.381H369.477V246.23H365.398V248.926H369.441V249.77H365.398V253.15H369.441V254H364.537V245.381ZM375.086 245.381L379.106 254H378.18L376.827 251.164H373.112L371.764 254H370.803L374.875 245.381H375.086ZM374.981 247.209L373.498 250.332H376.446L374.981 247.209ZM381.048 245.381H381.915V253.168H385.225V254H381.048V245.381Z" fill="#7E7E7E"/>
</svg>
