<svg width="22" height="23" viewBox="0 0 22 23" fill="none" xmlns="http://www.w3.org/2000/svg">
<path d="M11.0003 0.949707C8.85518 0.949651 6.7582 1.58571 4.97457 2.77744C3.19094 3.96918 1.80076 5.66307 0.979824 7.6449C0.158893 9.62673 -0.0559145 11.8075 0.362566 13.9114C0.781046 16.0153 1.81402 17.9479 3.33085 19.4647C4.84769 20.9816 6.78026 22.0145 8.88417 22.433C10.9881 22.8515 13.1688 22.6367 15.1507 21.8158C17.1325 20.9948 18.8264 19.6046 20.0181 17.821C21.2099 16.0374 21.8459 13.9404 21.8459 11.7953C21.843 8.91972 20.6995 6.16275 18.6662 4.12942C16.6328 2.0961 13.8759 0.952537 11.0003 0.949707ZM11.0003 21.6567C9.04989 21.6567 7.14328 21.0784 5.52157 19.9948C3.89986 18.9112 2.63589 17.371 1.8895 15.5691C1.1431 13.7671 0.947815 11.7843 1.32832 9.87139C1.70883 7.95846 2.64804 6.20131 4.02719 4.82216C5.40634 3.44301 7.16349 2.50379 9.07643 2.12329C10.9894 1.74278 12.9722 1.93807 14.7741 2.68446C16.5761 3.43085 18.1162 4.69482 19.1998 6.31653C20.2834 7.93824 20.8618 9.84486 20.8618 11.7953C20.859 14.4098 19.8192 16.9166 17.9704 18.7653C16.1216 20.6141 13.6149 21.654 11.0003 21.6567Z" fill="#FFB635"/>
<path d="M7.90452 12.0054C7.59056 12.0054 7.28366 12.0985 7.02262 12.2729C6.76157 12.4473 6.55812 12.6952 6.43797 12.9853C6.31783 13.2753 6.28639 13.5945 6.34764 13.9024C6.40889 14.2103 6.56007 14.4932 6.78207 14.7152C7.00407 14.9372 7.28691 15.0884 7.59484 15.1496C7.90276 15.2109 8.22193 15.1794 8.51198 15.0593C8.80204 14.9391 9.04995 14.7357 9.22438 14.4746C9.3988 14.2136 9.4919 13.9067 9.4919 13.5927C9.49145 13.1719 9.32407 12.7684 9.02647 12.4708C8.72888 12.1732 8.32538 12.0058 7.90452 12.0054ZM7.90452 14.1955C7.78524 14.1955 7.66865 14.1601 7.56948 14.0938C7.47031 14.0275 7.39302 13.9334 7.34739 13.8232C7.30176 13.713 7.28983 13.5917 7.31312 13.4747C7.33641 13.3577 7.39387 13.2503 7.47823 13.166C7.56259 13.0817 7.67006 13.0242 7.78705 13.001C7.90404 12.9778 8.02529 12.9898 8.13547 13.0354C8.24565 13.0811 8.33981 13.1585 8.40603 13.2577C8.47226 13.3569 8.50758 13.4735 8.50752 13.5927C8.50737 13.7526 8.44378 13.9059 8.33072 14.0189C8.21766 14.1319 8.06437 14.1954 7.90452 14.1955Z" fill="#FFB635"/>
<path d="M16.6883 6.28799C16.2118 5.4628 15.3358 4.94699 14.2214 4.83533C13.0849 4.74847 11.9495 5.01688 10.9722 5.60343C10.1475 6.07158 9.45232 6.73751 8.94912 7.54124C8.26721 7.57388 7.60464 7.77856 7.02312 8.13622C6.44161 8.49388 5.96007 8.99289 5.62334 9.58677C5.42919 9.93624 5.28868 10.3129 5.20653 10.7042C5.16442 10.864 5.08735 11.0125 4.98089 11.139C4.87442 11.2655 4.74121 11.3667 4.59087 11.4354C4.14186 11.6594 3.77021 12.0128 3.52381 12.4499C2.69046 13.9596 3.66443 16.1008 5.69646 17.2224C6.45729 17.6522 7.31404 17.8836 8.18778 17.8952C9.36903 17.8952 10.397 17.4196 10.894 16.5196C11.062 16.2136 11.162 15.8749 11.187 15.5268C11.1944 15.3727 11.2339 15.2219 11.3031 15.084C11.3723 14.9462 11.4695 14.8243 11.5887 14.7263C11.7087 14.6336 11.8235 14.5341 11.9323 14.4285L12.7446 15.8347C12.9308 16.1566 13.237 16.3914 13.5962 16.4877C13.9553 16.584 14.338 16.5339 14.6602 16.3483L18.4374 14.1675C18.7595 13.9815 18.9945 13.6751 19.0908 13.3158C19.187 12.9566 19.1366 12.5737 18.9507 12.2516L16.8891 8.67974C17.0243 8.28912 17.0764 7.87453 17.0418 7.46261C17.0072 7.0507 16.8868 6.65058 16.6883 6.28799ZM10.9888 13.9447C10.7597 14.1268 10.5715 14.3551 10.4363 14.6146C10.3012 14.8742 10.2221 15.1593 10.2043 15.4514C10.1898 15.6591 10.1305 15.8613 10.0305 16.044C9.46803 17.0613 7.70206 17.207 6.17178 16.3621C4.6415 15.5172 3.82334 13.9433 4.38528 12.9269C4.53601 12.6607 4.76405 12.4466 5.03918 12.3129C5.32049 12.1776 5.56797 11.9811 5.7635 11.7378C5.95903 11.4945 6.09767 11.2105 6.16925 10.9067C6.23147 10.6118 6.33775 10.3281 6.48453 10.0649C6.75215 9.59238 7.14066 9.19957 7.61019 8.92675C8.07972 8.65393 8.61337 8.51092 9.15641 8.51239H9.16991C9.19424 8.51562 9.21877 8.51703 9.24331 8.51661C9.68562 8.52724 10.12 8.6366 10.5146 8.83667C10.9015 9.03359 11.2417 9.31129 11.5121 9.651C11.7825 9.99071 11.9769 10.3845 12.082 10.8058C12.1871 11.2271 12.2005 11.666 12.1214 12.0929C12.0422 12.5199 11.8724 12.9248 11.6233 13.2804L11.6168 13.2889C11.4421 13.5382 11.2303 13.7594 10.9888 13.9447ZM18.0965 12.7441C18.1519 12.8401 18.1669 12.9542 18.1383 13.0613C18.1097 13.1684 18.0397 13.2597 17.9438 13.3153L14.1666 15.4958C14.1191 15.5233 14.0666 15.5412 14.0122 15.5483C13.9577 15.5555 13.9024 15.5519 13.8494 15.5377C13.7964 15.5235 13.7467 15.499 13.7031 15.4655C13.6596 15.4321 13.6231 15.3904 13.5957 15.3428L12.5868 13.5951C12.6088 13.5583 12.6338 13.5234 12.6549 13.4857C12.9153 13.0139 13.0782 12.4945 13.1339 11.9584C13.1896 11.4223 13.1369 10.8805 12.979 10.3652C12.8211 9.84991 12.5612 9.37161 12.2148 8.95876C11.8683 8.5459 11.4424 8.20693 10.9623 7.96199C10.6816 7.8203 10.3848 7.71294 10.0783 7.64221C10.4622 7.16328 10.9328 6.76084 11.4655 6.45589C12.2638 5.97246 13.1924 5.74852 14.1233 5.81492C14.9139 5.89396 15.5219 6.2368 15.8355 6.78017C15.9766 7.05401 16.0547 7.35595 16.0639 7.66385C16.0731 7.97176 16.0134 8.27783 15.889 8.55964C15.8633 8.6278 15.853 8.70081 15.8589 8.77342C15.8647 8.84603 15.8866 8.91643 15.923 8.97955L18.0965 12.7441Z" fill="#FFB635"/>
</svg>
