<svg width="38" height="20" viewBox="0 0 38 20" fill="none" xmlns="http://www.w3.org/2000/svg">
<path d="M31.4052 3.73474C31.3942 3.72846 31.3856 3.7214 31.3754 3.71513C31.1479 3.56532 30.8546 3.55669 30.6193 3.69474C30.3832 3.83278 30.2467 4.0924 30.2687 4.36456C30.4334 6.60543 30.2624 8.61805 30.0922 9.90437C30.0757 10.0228 29.9769 10.1122 29.8561 10.1169C29.7369 10.1209 29.6326 10.0361 29.6082 9.92006C28.9251 6.45954 27.5815 3.47826 26.7407 1.83741C26.6497 1.66015 26.4897 1.52917 26.2983 1.47505C24.0802 0.853064 22.0229 0.635801 20.7436 0.566779C20.5185 0.554229 20.3013 0.649134 20.1554 0.823258C20.0111 0.996598 19.9577 1.22876 20.0095 1.44838C20.7899 4.69948 20.5821 8.28784 20.3938 10.1099C20.3813 10.2267 20.2879 10.3193 20.1719 10.3287C20.0558 10.3397 19.9475 10.2652 19.9154 10.153C19.3005 8.02038 17.9067 3.49081 16.527 1.13307C16.3866 0.893065 16.1192 0.755805 15.8431 0.781689C13.9701 0.956597 12.1693 1.22563 10.5645 1.95271C10.5637 1.95271 10.5637 1.95271 10.5629 1.95271C10.2453 1.95271 10.0563 2.2939 10.1088 2.6296C10.5763 5.58029 10.3598 8.32628 10.1441 9.95535C10.1276 10.0738 10.0296 10.1373 9.9088 10.1412C9.78958 10.1452 9.68447 10.0495 9.66094 9.93104C9.21936 7.6941 8.50012 5.6501 7.81932 4.04377C7.72049 3.81003 7.52597 3.62728 7.2844 3.54728C7.04361 3.46649 6.78007 3.49237 6.56045 3.62022C2.23875 6.13012 0.310059 9.06356 0.310059 12.059C0.310059 18.431 8.62248 19.1863 18.8761 19.1863C29.1298 19.1863 37.4414 18.431 37.4414 12.059C37.4438 9.31298 35.73 6.61092 31.4052 3.73474Z" fill="#FFB635"/>
</svg>
