<svg width="24" height="23" viewBox="0 0 24 23" fill="none" xmlns="http://www.w3.org/2000/svg">
<path fill-rule="evenodd" clip-rule="evenodd" d="M23.9556 12.9064C23.7489 10.8278 22.8203 8.86819 21.3407 7.38851C20.0762 6.12407 18.5285 5.31152 16.9 4.95022V3.80802C17.5651 3.64254 18.0596 3.04047 18.0596 2.32484C18.0596 1.48203 17.3739 0.796387 16.5311 0.796387H13.2944C12.4516 0.796387 11.7659 1.48203 11.7659 2.32484C11.7659 3.04042 12.2603 3.6425 12.9254 3.80802V4.95342C11.3019 5.31624 9.75934 6.12767 8.49846 7.38855C8.22253 7.66448 7.96808 7.95395 7.73517 8.25478C7.72389 8.25393 7.71261 8.25307 7.7011 8.25307H4.4976C4.24936 8.25307 4.04805 8.45434 4.04805 8.70262C4.04805 8.9509 4.24936 9.15216 4.4976 9.15216H7.12348C6.79387 9.70398 6.5281 10.2835 6.32581 10.88H1.43319C1.18495 10.88 0.983643 11.0813 0.983643 11.3296C0.983643 11.5779 1.18495 11.7791 1.43319 11.7791H6.07177C5.94221 12.3478 5.86786 12.9266 5.84866 13.507H3.86073C3.61249 13.507 3.41118 13.7083 3.41118 13.9566C3.41118 14.2049 3.61249 14.4061 3.86073 14.4061H5.863C5.90094 14.988 5.99449 15.5669 6.1437 16.134H3.23137C2.98313 16.134 2.78182 16.3353 2.78182 16.5836C2.78182 16.8319 2.98313 17.0331 3.23137 17.0331H6.4306C6.8716 18.1997 7.5608 19.2932 8.49846 20.2308C9.97953 21.7119 11.9412 22.6407 14.0219 22.8463C14.3189 22.8756 14.6161 22.8902 14.9129 22.8902C16.6671 22.8902 18.399 22.3825 19.8686 21.4255C20.0766 21.29 20.1355 21.0115 20 20.8035C19.8645 20.5954 19.586 20.5366 19.3779 20.6721C16.1611 22.7668 11.853 22.3139 9.1342 19.5951C5.94414 16.405 5.94414 11.2144 9.1342 8.02435C12.3242 4.83433 17.5148 4.83433 20.7049 8.02435C23.4201 10.7396 23.8755 15.044 21.7877 18.2593C21.6524 18.4675 21.7117 18.7459 21.9198 18.8811C22.1282 19.0163 22.4065 18.9571 22.5417 18.7489C23.6572 17.031 24.1593 14.9561 23.9556 12.9064ZM12.665 2.32488C12.665 1.97783 12.9473 1.69552 13.2944 1.69552H16.5311C16.8781 1.69552 17.1605 1.97783 17.1605 2.32488C17.1605 2.67193 16.8781 2.95425 16.5311 2.95425H16.4505H13.375H13.2944C12.9473 2.95425 12.665 2.67189 12.665 2.32488ZM13.8245 4.79886V3.85334H16.0009V4.79724C15.2782 4.71129 14.5471 4.71183 13.8245 4.79886ZM21.0229 19.4635C20.9042 19.4635 20.7887 19.5116 20.7051 19.5952C20.6211 19.6788 20.5734 19.7948 20.5734 19.913C20.5734 20.0312 20.6211 20.1472 20.7051 20.2308C20.7887 20.3149 20.9043 20.3626 21.0229 20.3626C21.1411 20.3626 21.2567 20.3149 21.3407 20.2308C21.4244 20.1472 21.4725 20.0312 21.4725 19.913C21.4725 19.7948 21.4244 19.6788 21.3407 19.5952C21.2567 19.5116 21.1411 19.4635 21.0229 19.4635ZM7.94587 13.8097C7.94587 9.96435 11.0743 6.83597 14.9196 6.83597C18.7649 6.83597 21.8934 9.96435 21.8934 13.8097C21.8934 17.6551 18.7649 20.7834 14.9196 20.7834C11.0743 20.7834 7.94587 17.6551 7.94587 13.8097ZM8.84496 13.8097C8.84496 17.1593 11.57 19.8844 14.9196 19.8844C18.2692 19.8844 20.9943 17.1593 20.9943 13.8097C20.9943 10.4602 18.2692 7.73506 14.9196 7.73506C11.57 7.73506 8.84496 10.4602 8.84496 13.8097ZM17.7632 10.3302L15.5366 12.5567C15.3504 12.4647 15.141 12.4126 14.9196 12.4126C14.6982 12.4126 14.4888 12.4647 14.3026 12.5567L13.306 11.5602C13.1305 11.3847 12.8459 11.3847 12.6703 11.5602C12.4947 11.7358 12.4947 12.0204 12.6703 12.196L13.6668 13.1925C13.5747 13.3787 13.5227 13.5881 13.5227 13.8095C13.5227 14.5798 14.1493 15.2064 14.9196 15.2064C15.6899 15.2064 16.3165 14.5798 16.3165 13.8095C16.3165 13.5881 16.2645 13.3787 16.1724 13.1925L18.3337 11.0312L18.399 10.9659C18.5745 10.7904 18.5745 10.5057 18.399 10.3302C18.2234 10.1546 17.9389 10.1546 17.7632 10.3302ZM14.9196 14.3074C14.6451 14.3074 14.4218 14.0841 14.4218 13.8096C14.4218 13.5351 14.6451 13.3117 14.9196 13.3117C15.1941 13.3117 15.4174 13.5351 15.4174 13.8096C15.4174 14.0841 15.1941 14.3074 14.9196 14.3074ZM19.3095 13.3655H19.726C19.9742 13.3655 20.1755 13.5668 20.1755 13.815C20.1755 14.0633 19.9742 14.2646 19.726 14.2646H19.3095C19.0612 14.2646 18.8599 14.0633 18.8599 13.815C18.8599 13.5668 19.0612 13.3655 19.3095 13.3655ZM10.5297 13.3548H10.1132C9.86497 13.3548 9.66367 13.5561 9.66367 13.8044C9.66367 14.0526 9.86497 14.2539 10.1132 14.2539H10.5297C10.7779 14.2539 10.9792 14.0526 10.9792 13.8044C10.9792 13.5561 10.7779 13.3548 10.5297 13.3548ZM15.3746 9.41919C15.3746 9.66747 15.1733 9.86873 14.9251 9.86873C14.6768 9.86873 14.4755 9.66747 14.4755 9.41919V9.00274C14.4755 8.75446 14.6768 8.5532 14.9251 8.5532C15.1733 8.5532 15.3746 8.75446 15.3746 9.00274V9.41919ZM14.9141 17.7502C14.6659 17.7502 14.4646 17.9514 14.4646 18.1997V18.6162C14.4646 18.8644 14.6659 19.0657 14.9141 19.0657C15.1624 19.0657 15.3637 18.8644 15.3637 18.6162V18.1997C15.3637 17.9514 15.1624 17.7502 14.9141 17.7502ZM1.11537 16.2658C1.19898 16.1822 1.31497 16.1341 1.43319 16.1341C1.55142 16.1341 1.6674 16.1822 1.75097 16.2658C1.83463 16.3494 1.88273 16.4654 1.88273 16.5836C1.88273 16.7019 1.83459 16.8178 1.75097 16.9015C1.6674 16.9851 1.55142 17.0332 1.43319 17.0332C1.31497 17.0332 1.19903 16.9851 1.11537 16.9015C1.03171 16.8178 0.983656 16.7023 0.983656 16.5836C0.983656 16.4654 1.03176 16.3494 1.11537 16.2658Z" fill="#FFB635"/>
</svg>
