<svg width="30" height="30" viewBox="0 0 30 30" fill="none" xmlns="http://www.w3.org/2000/svg">
<path d="M11.9268 20.2153L16.0699 7.78573C16.2234 7.32525 15.9746 6.8275 15.5141 6.67398C15.0536 6.52053 14.5558 6.76937 14.4023 7.22986L10.2592 19.6594C10.1057 20.1199 10.3546 20.6177 10.8151 20.7712C10.9072 20.8019 11.001 20.8165 11.0931 20.8165C11.4611 20.8165 11.804 20.5836 11.9268 20.2153Z" fill="#FFB635"/>
<path d="M18.1367 16.3593C19.5906 16.3593 20.7734 15.1765 20.7734 13.7226C20.7734 12.2688 19.5906 11.0859 18.1367 11.0859C16.6828 11.0859 15.5 12.2688 15.5 13.7226C15.5 15.1765 16.6828 16.3593 18.1367 16.3593ZM18.1367 12.8437C18.6213 12.8437 19.0156 13.238 19.0156 13.7226C19.0156 14.2073 18.6213 14.6015 18.1367 14.6015C17.6521 14.6015 17.2578 14.2073 17.2578 13.7226C17.2578 13.238 17.6521 12.8437 18.1367 12.8437Z" fill="#FFB635"/>
<path d="M8.19236 11.0859C6.73849 11.0859 5.55566 12.2688 5.55566 13.7226C5.55566 15.1765 6.73849 16.3593 8.19236 16.3593C9.64623 16.3593 10.8291 15.1765 10.8291 13.7226C10.8291 12.2688 9.64629 11.0859 8.19236 11.0859ZM8.19236 14.6015C7.70774 14.6015 7.31346 14.2073 7.31346 13.7226C7.31346 13.238 7.70774 12.8437 8.19236 12.8437C8.67698 12.8437 9.07126 13.238 9.07126 13.7226C9.07126 14.2073 8.67704 14.6015 8.19236 14.6015Z" fill="#FFB635"/>
<path d="M29.824 10.8986L26.7591 6.81211L26.8787 5.97522C26.9178 5.70136 26.8258 5.42503 26.6301 5.22945L24.7657 3.36501L26.6301 1.50057C26.9733 1.15739 26.9733 0.600869 26.6301 0.25763C26.2869 -0.0855511 25.7304 -0.0855511 25.3871 0.25763L23.5227 2.12207L21.6583 0.25763C21.4627 0.0619868 21.1864 -0.0297703 20.9125 0.00901847L12.2118 1.25196C12.0236 1.27885 11.8491 1.3661 11.7147 1.50057L0.9424 12.2728C-0.314133 13.5293 -0.314133 15.5739 0.9424 16.8303L10.0574 25.9453C10.2438 26.1318 10.4479 26.2899 10.664 26.421V26.7774C10.664 28.5543 12.1096 30 13.8866 30H26.7771C28.5541 30 29.9998 28.5543 29.9998 26.7774V11.4259C29.9998 11.2358 29.9381 11.0507 29.824 10.8986ZM2.18534 15.5874C1.61417 15.0162 1.61417 14.0869 2.18534 13.5158L12.7504 2.9507L20.726 1.81135L22.2797 3.36507L21.0368 4.60801L20.4153 3.98651C20.0721 3.64333 19.5156 3.64333 19.1724 3.98651C18.8291 4.32969 18.8291 4.88621 19.1724 5.22945L21.6583 7.71539C21.8299 7.88701 22.0549 7.97284 22.2797 7.97284C22.5046 7.97284 22.7296 7.88701 22.9012 7.71539C23.2444 7.3722 23.2444 6.81568 22.9012 6.47245L22.2797 5.85095L23.5226 4.60801L25.0763 6.16173L23.9369 14.1373L13.3719 24.7024C13.0952 24.9791 12.7274 25.1314 12.3361 25.1314C11.9448 25.1314 11.577 24.979 11.3003 24.7024L2.18534 15.5874ZM28.242 26.7774C28.242 27.5851 27.5848 28.2422 26.7771 28.2422H13.8866C13.1153 28.2422 12.4818 27.6429 12.4262 26.8855C13.2211 26.8635 14.0095 26.5507 14.6148 25.9453L25.3871 15.1731C25.5215 15.0386 25.6088 14.8642 25.6357 14.6759L26.4075 9.27303L28.242 11.7189V26.7774Z" fill="#FFB635"/>
</svg>
