<svg width="58" height="60" viewBox="0 0 58 60" fill="none" xmlns="http://www.w3.org/2000/svg">
<path d="M3 32H8.31538C8.11614 32.5543 8.08572 33.1553 8.22795 33.7269C8.37019 34.2986 8.67871 34.8152 9.1145 35.2115L17.3242 42.7365L17.325 42.7357C17.3319 42.742 17.3375 42.749 17.3451 42.755L30.3192 54H30C29.7348 54 29.4804 54.1054 29.2929 54.2929C29.1054 54.4804 29 54.7348 29 55V59C29 59.2652 29.1054 59.5196 29.2929 59.7071C29.4804 59.8946 29.7348 60 30 60H42C42.2652 60 42.5196 59.8946 42.7071 59.7071C42.8946 59.5196 43 59.2652 43 59V55C43 54.7348 42.8946 54.4804 42.7071 54.2929C42.5196 54.1054 42.2652 54 42 54V52.4141L42.5355 51.8786C43.0013 51.4154 43.3705 50.8645 43.6219 50.2576C43.8733 49.6507 44.0018 49 44 48.3431V42.2166L47.625 34.2416C47.9476 33.5355 47.9824 32.7314 47.722 32H55C55.7954 31.9991 56.5579 31.6827 57.1203 31.1203C57.6827 30.5579 57.9991 29.7954 58 29V27C58 26.7348 57.8946 26.4804 57.7071 26.2929C57.5196 26.1054 57.2652 26 57 26H53V25C53 13.4205 43.5795 4 32 4V2H33C33.2652 2 33.5196 1.89464 33.7071 1.70711C33.8946 1.51957 34 1.26522 34 1C34 0.734784 33.8946 0.48043 33.7071 0.292893C33.5196 0.105357 33.2652 0 33 0H25C24.7348 0 24.4804 0.105357 24.2929 0.292893C24.1054 0.48043 24 0.734784 24 1C24 1.26522 24.1054 1.51957 24.2929 1.70711C24.4804 1.89464 24.7348 2 25 2H26V4C14.4205 4 5 13.4205 5 25V26H1C0.734784 26 0.48043 26.1054 0.292893 26.2929C0.105357 26.4804 0 26.7348 0 27V29C0.000926306 29.7954 0.317294 30.5579 0.879703 31.1203C1.44211 31.6827 2.20463 31.9991 3 32ZM10.2096 32.6375C10.28 32.4479 10.4074 32.2848 10.5743 32.1706C10.7412 32.0565 10.9394 31.9969 11.1416 32H11.7125C11.9044 32.0002 12.0923 32.0556 12.2537 32.1595C12.4151 32.2634 12.5432 32.4115 12.6229 32.5861L13.3746 34.2399V34.2414L15.0596 37.9482L10.4659 33.7375C10.3146 33.6032 10.2088 33.4252 10.1629 33.2282C10.117 33.0312 10.1333 32.8248 10.2096 32.6375ZM41 58H31V56H41V58ZM45.7347 32.4586C45.8268 32.5987 45.8815 32.76 45.8937 32.9271C45.9059 33.0943 45.8752 33.2618 45.8044 33.4137L42.0896 41.5861C42.0306 41.7161 42 41.8572 42 42V48.3431C42.0011 48.7373 41.924 49.1277 41.7731 49.4918C41.6223 49.8559 41.4008 50.1865 41.1214 50.4645L40.2929 51.2929C40.2 51.3857 40.1264 51.496 40.0761 51.6173C40.0259 51.7386 40 51.8687 40 52V54H33.373L18.82 41.3875L15.195 33.4139C15.1257 33.2615 15.0958 33.0942 15.108 32.9272C15.1202 32.7603 15.1741 32.5991 15.2647 32.4584C15.3554 32.3177 15.4799 32.202 15.6269 32.1219C15.7739 32.0418 15.9386 31.9999 16.106 32H16.7639C16.9497 31.9993 17.132 32.0508 17.2902 32.1485C17.4483 32.2462 17.5758 32.3862 17.6584 32.5527L21.1056 39.4473C21.2151 39.6663 21.4012 39.8375 21.6286 39.9285L31.6286 43.9285C31.8238 44.0065 32.0386 44.0211 32.2425 43.9701L36.2425 42.9701C36.3766 42.9366 36.5023 42.8756 36.6117 42.7911C36.721 42.7065 36.8117 42.6002 36.8779 42.4789L42.3094 32.5211C42.3954 32.3634 42.5224 32.2317 42.6769 32.14C42.8314 32.0483 43.0078 32 43.1875 32H44.8942C45.0618 31.9985 45.227 32.0398 45.3741 32.1201C45.5212 32.2003 45.6454 32.3169 45.7347 32.4586ZM19.618 32H40.3155L35.3321 41.1362L32.0711 41.9514L22.725 38.2125L19.618 32ZM28 2H30V4H28V2ZM7 25C7 14.5234 15.5234 6 26 6H32C42.4766 6 51 14.5234 51 25V26H7V25ZM2 28H56V29C55.9997 29.2651 55.8943 29.5193 55.7068 29.7068C55.5193 29.8942 55.2651 29.9997 55 30H3C2.73487 29.9997 2.48069 29.8942 2.29322 29.7068C2.10575 29.5193 2.0003 29.2651 2 29V28Z" fill="#FFB635"/>
</svg>
