<svg width="15" height="15" viewBox="0 0 15 15" fill="none" xmlns="http://www.w3.org/2000/svg">
<circle cx="7.5" cy="7.5" r="7.5" fill="#FFC701" fill-opacity="0.1"/>
<path d="M7.49414 3C7.77539 3 8.01562 3.10156 8.21484 3.30469C8.41797 3.50781 8.51953 3.75391 8.51953 4.04297C8.51953 4.32812 8.41992 4.57227 8.2207 4.77539C8.02148 4.97461 7.7832 5.07422 7.50586 5.07422C7.2207 5.07422 6.97656 4.97266 6.77344 4.76953C6.57422 4.5625 6.47461 4.3125 6.47461 4.01953C6.47461 3.73828 6.57422 3.49805 6.77344 3.29883C6.97266 3.09961 7.21289 3 7.49414 3ZM6.69141 5.625H8.29688V12H6.69141V5.625Z" fill="#FFB635"/>
</svg>
