<svg width="37" height="34" viewBox="0 0 37 34" fill="none" xmlns="http://www.w3.org/2000/svg">
<path d="M0.893777 27.5034C4.08306 29.3223 7.06056 31.5648 10.4865 32.8604C17.8991 35.651 26.9687 33.1719 31.9395 27.0051C36.8106 20.9629 37.3837 11.8186 33.3472 5.19086C33.858 6.49897 33.6961 8.05623 32.8863 9.21484C30.6563 5.37773 26.9188 2.41269 22.6332 1.25408C18.5594 0.157768 14.0247 0.743302 10.4243 2.96085C6.41273 5.45248 3.78407 9.75054 2.40121 14.2604C1.10556 18.4588 0.756738 22.8814 0.495117 27.2792C0.632157 27.3539 0.756738 27.4286 0.893777 27.5034Z" fill="#F9B332"/>
<path d="M12.6165 23.604C12.4545 23.604 12.305 23.5417 12.1805 23.4296C11.9438 23.1929 11.9438 22.8067 12.1805 22.57L23.48 11.258C23.7167 11.0213 24.1029 11.0213 24.3396 11.258C24.5763 11.4947 24.5763 11.8809 24.3396 12.1176L13.0401 23.4171C12.9279 23.5417 12.766 23.604 12.6165 23.604Z" fill="white"/>
<path d="M14.7214 16.5028C14.6467 16.5028 14.5719 16.5028 14.4847 16.4904C13.6625 16.4032 12.9025 15.9048 12.454 15.1449C12.1675 14.659 12.0429 14.1109 12.0927 13.5752C12.18 12.6283 12.7157 11.8684 13.5379 11.4946C14.4349 11.0835 15.5686 11.1956 16.3784 11.7812C17.1134 12.3044 17.4871 13.1516 17.3875 14.1109C17.3252 14.7836 16.9639 15.4314 16.4033 15.8799C15.9174 16.2786 15.3194 16.5028 14.7214 16.5028ZM13.513 14.5344C13.7621 14.958 14.1733 15.2321 14.6093 15.2819C14.9581 15.3193 15.3319 15.1947 15.6433 14.9331C15.9548 14.6839 16.1416 14.3351 16.179 13.9863C16.2413 13.326 15.9423 12.9647 15.6682 12.7778C15.2197 12.4539 14.547 12.3916 14.0487 12.6159C13.7497 12.7529 13.3759 13.0519 13.3136 13.7122C13.2887 13.9738 13.3635 14.2728 13.513 14.5344Z" fill="white"/>
<path d="M21.6365 23.604C21.5617 23.604 21.4745 23.604 21.3997 23.5916C20.5775 23.5168 19.8176 23.006 19.3691 22.2461C19.0825 21.7602 18.958 21.212 19.0078 20.6763C19.1697 18.982 20.5775 18.2221 21.8981 18.3591C23.2186 18.4837 24.4645 19.5053 24.3025 21.1871C24.1779 22.5451 22.957 23.604 21.6365 23.604ZM21.6365 19.58C21.1007 19.58 20.3283 19.8292 20.2287 20.8009C20.2038 21.075 20.2785 21.3615 20.428 21.6232C20.6772 22.0467 21.0883 22.3333 21.5243 22.3706C22.2718 22.4703 23.0193 21.81 23.0941 21.075C23.1937 20.0036 22.3217 19.6299 21.786 19.58C21.7361 19.5925 21.6863 19.58 21.6365 19.58Z" fill="white"/>
</svg>
