<svg width="54" height="72" viewBox="0 0 54 72" fill="none" xmlns="http://www.w3.org/2000/svg">
<path d="M46.8217 34.725L46.8226 34.9342C46.8559 43.2477 44.1484 51.1426 39.1313 57.282C34.1139 63.4218 27.1512 67.3597 19.4228 68.45L19.2064 68.4805L19.136 68.2694L17.1509 62.3169L17.0109 61.8971L17.4402 62.0105C17.7694 62.0975 18.1072 62.1966 18.4471 62.2962L18.4513 62.2975L18.4514 62.2975C20.0945 62.7796 21.6984 63.2424 23.2335 62.7337L23.3249 62.9704L23.2335 62.7337C24.8333 62.2037 25.8779 60.7858 26.8448 59.4615L26.8637 59.4355C27.4658 58.6109 28.0668 57.7879 28.7401 57.3207M46.8217 34.725L28.8915 57.5274M46.8217 34.725L46.6136 34.6784M46.8217 34.725L46.6136 34.6784M28.7401 57.3207L28.8915 57.5274M28.7401 57.3207C28.7401 57.3208 28.7401 57.3208 28.74 57.3208L28.8915 57.5274M28.7401 57.3207C29.434 56.8392 30.4171 56.5695 31.4008 56.2997L31.4291 56.2919C32.9661 55.8702 34.6163 55.4104 35.6805 54.1081C36.7478 52.8019 36.9524 50.9847 37.1358 49.3L37.1389 49.2717C37.2565 48.1921 37.3731 47.1208 37.724 46.326M28.8915 57.5274C29.5521 57.0689 30.5024 56.8082 31.5085 56.5322L31.5087 56.5321C33.033 56.1139 34.7606 55.6398 35.8789 54.2714C36.9973 52.9027 37.2034 51.0103 37.3853 49.3405C37.5053 48.2386 37.6187 47.1977 37.9547 46.4365M37.724 46.326C37.724 46.326 37.724 46.326 37.724 46.326L37.9547 46.4365M37.724 46.326L37.9547 46.4365M37.724 46.326C38.0654 45.5525 38.7474 44.8054 39.4324 44.0552L39.4522 44.0336L39.6423 44.2064M37.9547 46.4365C38.2808 45.6977 38.942 44.9735 39.6419 44.2068L39.6423 44.2064M39.6423 44.2064L39.4522 44.0336C40.5469 42.8345 41.7261 41.534 42.0033 39.7582C42.0743 39.3034 42.0801 38.8521 42.0376 38.403C41.9202 37.1629 41.4378 35.9517 40.9491 34.7294L40.9465 34.723C40.8084 34.3775 40.6712 34.0345 40.5466 33.6991L40.3929 33.2857L40.8233 33.3821L46.6136 34.6784M39.6423 44.2064L46.6136 34.6784M1.37154 22.0908L49.0338 32.7601L49.0707 33.7783L49.3214 33.7835L49.0707 33.7783C49.2405 38.457 48.62 43.0042 47.2272 47.2939C45.8315 51.5925 43.6976 55.5173 40.8844 58.9597L41.0828 59.123L40.8844 58.9597C38.0713 62.4021 34.7203 65.1894 30.9248 67.2457C27.1371 69.2977 23.0077 70.5673 18.6503 71.0196L17.7216 71.1161L1.37154 22.0908ZM24.4066 30.0034L24.5073 29.7298L24.2122 29.6638L17.7042 28.2069L17.392 28.137L17.412 28.4512C17.4584 29.1848 17.7046 29.9034 18.1336 30.5308C18.7139 31.3795 19.5622 31.9648 20.5233 32.1708C22.2281 32.5362 23.8266 31.5801 24.4066 30.0034ZM15.1315 27.8482L15.1377 27.6325L14.9226 27.5843L5.22609 25.4138L4.81261 25.3213L4.94643 25.7225L8.00192 34.8843L8.06837 35.0835L8.27457 35.0664C9.55612 34.9601 10.8662 35.2526 12.068 35.9312L12.1826 35.7165L12.068 35.9312C13.6806 36.8416 14.9107 38.341 15.5281 40.1587C16.1504 41.9911 16.0756 43.9225 15.3189 45.5982C14.7527 46.8523 13.8568 47.8473 12.7377 48.4936L12.5725 48.5889L12.635 48.7765L16.0946 59.15L16.148 59.31L16.3148 59.331C17.1851 59.4403 18.047 59.6918 18.9112 59.9454L18.9195 59.9478C19.5595 60.1355 20.1995 60.3233 20.788 60.4273C21.377 60.5313 21.9459 60.5577 22.4322 60.3966C22.9453 60.2266 23.3952 59.8587 23.8086 59.4141C24.2214 58.9703 24.6173 58.4282 25.0138 57.8851L25.0189 57.878C25.74 56.8904 26.4593 55.9092 27.4172 55.2444C28.3927 54.5675 29.5574 54.2456 30.7294 53.9241L30.737 53.922C31.3678 53.749 31.9988 53.5759 32.5476 53.352C33.098 53.1275 33.5907 52.8424 33.9273 52.4306L33.9273 52.4306C34.2627 52.0202 34.459 51.4639 34.592 50.855C34.725 50.2462 34.8001 49.557 34.8754 48.865L34.8762 48.8581C35.0159 47.5746 35.1575 46.2924 35.6559 45.1635L35.4251 45.053L35.6559 45.1635C36.1443 44.0571 36.9584 43.1625 37.7762 42.2668L37.782 42.2604C38.2323 41.7673 38.6817 41.2751 39.0375 40.7783C39.3947 40.2797 39.6721 39.7575 39.759 39.2003C39.8411 38.6746 39.7422 38.0852 39.5668 37.4784C39.3914 36.872 39.1313 36.2215 38.8702 35.5685L38.8675 35.5618C38.5157 34.6821 38.1646 33.8008 37.9444 32.8904L37.9054 32.7291L37.7425 32.6927L26.9944 30.2867L26.7657 30.2355L26.7092 30.4552C26.3671 31.7854 25.6108 32.9162 24.5377 33.6875C23.2917 34.5832 21.7609 34.8932 20.2239 34.5638C18.6685 34.2304 17.2856 33.2825 16.3313 31.8868C15.6652 30.9127 15.2654 29.8045 15.1577 28.6662C15.1321 28.3951 15.1237 28.122 15.1315 27.8482ZM11.6588 45.849L11.7783 46.2073L12.0611 45.98C12.5677 45.5728 12.9769 45.0425 13.2592 44.4174L13.0292 44.3051L13.2592 44.4174C13.7554 43.3184 13.8038 42.0533 13.3969 40.8555C12.744 38.9335 11.0404 37.6306 9.22118 37.5009L8.8663 37.4756L8.97956 37.8152L11.6588 45.849Z" fill="#FFB635" stroke="#F9F9F9" stroke-width="0.5"/>
<path d="M25.9243 51.3922C22.3491 51.5255 19.1194 48.5366 18.7558 44.6941C18.3923 40.8515 21.0357 37.6437 24.6109 37.5104C28.1861 37.3771 31.4158 40.366 31.7793 44.2085C32.1429 48.0511 29.4995 51.2589 25.9243 51.3922ZM25.6934 48.9525C28.0517 48.8645 29.7499 46.7595 29.5165 44.2929C29.2831 41.8264 27.2 39.8622 24.8417 39.9501C22.4835 40.038 20.7853 42.1431 21.0187 44.6097C21.252 47.0763 23.3352 49.0404 25.6934 48.9525Z" fill="#FFB635" stroke="#F9F9F9" stroke-width="0.5"/>
<path d="M34.6927 35.4046L34.9116 37.7164L32.6436 37.8009L32.4247 35.4891L34.6927 35.4046Z" fill="#FFB635" stroke="#F9F9F9" stroke-width="0.5"/>
<path d="M18.9159 52.0118L19.1347 54.3236L16.8667 54.4081L16.6479 52.0963L18.9159 52.0118Z" fill="#FFB635" stroke="#F9F9F9" stroke-width="0.5"/>
<path d="M12.2591 30.7845L12.478 33.0963L10.21 33.1808L9.99112 30.869L12.2591 30.7845Z" fill="#FFB635" stroke="#F9F9F9" stroke-width="0.5"/>
<path d="M32.4275 17.412C31.9416 17.8979 31.9416 18.6858 32.4275 19.1719C32.6705 19.4149 32.9889 19.5363 33.3074 19.5363C33.6259 19.5363 33.9442 19.4149 34.1872 19.1719C36.3845 16.9745 36.3845 13.3992 34.1872 11.2019C33.5928 10.6076 33.2654 9.81734 33.2654 8.97678C33.2654 8.13622 33.5928 7.34606 34.1872 6.75164C34.6732 6.26572 34.6732 5.4778 34.1872 4.99188C33.7015 4.50596 32.9138 4.50596 32.4274 4.99188C31.3629 6.0563 30.7766 7.47149 30.7766 8.97678C30.7766 10.4821 31.3629 11.8973 32.4274 12.9617C33.6544 14.1886 33.6544 16.1849 32.4275 17.412Z" fill="#FFB635"/>
<path d="M12.3514 17.4121C11.8655 17.898 11.8655 18.6859 12.3514 19.172C12.5945 19.415 12.9129 19.5365 13.2313 19.5365C13.5498 19.5365 13.8682 19.415 14.1112 19.172C16.3085 16.9746 16.3085 13.3993 14.1112 11.2021C12.8843 9.97512 12.8843 7.97869 14.1112 6.75176C14.5971 6.26584 14.5971 5.47792 14.1112 4.99188C13.6252 4.50596 12.8375 4.50596 12.3513 4.99188C10.1541 7.18915 10.1541 10.7645 12.3513 12.9618C13.5784 14.1887 13.5784 16.185 12.3514 17.4121Z" fill="#FFB635"/>
<path d="M22.3893 17.412C21.9034 17.8979 21.9034 18.6859 22.3893 19.1718C22.6324 19.4148 22.9507 19.5362 23.2692 19.5362C23.5878 19.5362 23.9061 19.4147 24.1491 19.1718C26.9842 16.3366 26.9842 11.7235 24.1491 8.88823C23.2457 7.98483 22.7482 6.78378 22.7482 5.50621C22.7482 4.22864 23.2457 3.02759 24.1491 2.1242C24.635 1.63828 24.635 0.850357 24.1491 0.364439C23.6632 -0.12148 22.8755 -0.12148 22.3892 0.364439C21.0158 1.73783 20.2595 3.56391 20.2595 5.50621C20.2595 7.44851 21.0158 9.2746 22.3892 10.648C24.2541 12.5129 24.2541 15.5471 22.3893 17.412Z" fill="#FFB635"/>
</svg>
