<svg width="29" height="26" viewBox="0 0 29 26" fill="none" xmlns="http://www.w3.org/2000/svg">
<path fill-rule="evenodd" clip-rule="evenodd" d="M11.5101 2.78977C9.00897 0.289879 4.11448 0 0.650018 0C0.291219 0 0 0.291158 0 0.649957C0 4.11442 0.288599 9.00891 2.78977 11.5101C3.84539 12.5658 5.46388 13.0377 7.06805 13.0377C8.36597 13.0377 9.65525 12.7285 10.6301 12.1698C11.9516 14.9362 12.9998 19.0725 12.9998 25.35C12.9998 25.7088 13.291 26 13.6498 26C14.0086 26 14.2998 25.7088 14.2998 25.3514C14.2998 21.8259 14.8992 17.5901 17.1459 14.1063C18.1216 15.06 19.8327 15.6077 21.5603 15.6077C23.1645 15.6077 24.7817 15.1371 25.8398 14.0816C28.3397 11.5804 28.6296 6.6859 28.6296 3.22137C28.6297 2.86258 28.3385 2.57136 27.9797 2.57136C24.5152 2.57136 19.6207 2.85995 17.1195 5.36112C15.2758 7.20374 15.2129 10.759 16.3311 12.9634C15.1319 14.6926 14.3346 16.6057 13.8214 18.5432C13.3474 15.4674 12.5646 13.1277 11.6729 11.3347C13.3912 9.37038 13.6492 4.92749 11.5101 2.78977ZM10.9845 10.0857C12.01 8.42619 12.0503 5.16943 10.591 3.71017C8.57217 1.69125 4.47066 1.3416 1.30387 1.30387C1.34159 4.47066 1.69131 8.57217 3.71023 10.591C5.15158 12.0324 8.3455 12.0107 10.0236 11.0217C8.57252 8.53453 6.94838 7.42345 6.04093 6.80298C5.74063 6.59762 5.51833 6.43772 5.38963 6.3103C5.13613 6.0568 5.13613 5.64468 5.38963 5.39118C5.64313 5.13768 6.05525 5.13768 6.30874 5.39118C6.38374 5.46512 6.50822 5.54967 6.66761 5.65792C6.70158 5.68099 6.73713 5.70513 6.77412 5.73048L6.77512 5.73116C7.73674 6.38926 9.44088 7.5555 10.9845 10.0857ZM17.9147 13.0286C19.1511 11.4592 20.7832 10.0938 22.9227 9.08843L23.028 9.03773C23.3517 8.88429 23.4388 8.52287 23.2854 8.19789C23.132 7.87157 22.6926 7.75981 22.3689 7.91057C20.2202 8.92076 18.5427 10.2548 17.2402 11.7822C16.6419 10.0304 16.8041 7.51344 18.0373 6.28024C20.0562 4.26133 24.1577 3.91167 27.3245 3.87395C27.2868 7.04202 26.9371 11.1435 24.9182 13.1611C23.2906 14.7887 19.427 14.5508 18.0373 13.1611C17.9954 13.1192 17.9545 13.075 17.9147 13.0286Z" fill="#FFB635"/>
</svg>
