<svg width="24" height="34" viewBox="0 0 24 34" fill="none" xmlns="http://www.w3.org/2000/svg">
<path fill-rule="evenodd" clip-rule="evenodd" d="M2.125 0H21.25C22.423 0 23.375 0.954125 23.375 2.125V31.875C23.375 33.048 22.423 34 21.25 34H2.125C0.954125 34 0 33.048 0 31.875V2.125C0 0.954125 0.954125 0 2.125 0ZM2.125 27.625H21.25V4.25H2.125V27.625ZM5.3125 8.5H9.5625C10.149 8.5 10.625 8.976 10.625 9.5625V13.8125C10.625 14.399 10.149 14.875 9.5625 14.875H5.3125C4.726 14.875 4.25 14.399 4.25 13.8125V9.5625C4.25 8.976 4.726 8.5 5.3125 8.5ZM9.5625 17H5.3125C4.726 17 4.25 17.476 4.25 18.0625V22.3125C4.25 22.899 4.726 23.375 5.3125 23.375H9.5625C10.149 23.375 10.625 22.899 10.625 22.3125V18.0625C10.625 17.476 10.149 17 9.5625 17ZM13.8125 8.5H18.0625C18.649 8.5 19.125 8.976 19.125 9.5625V13.8125C19.125 14.399 18.649 14.875 18.0625 14.875H13.8125C13.226 14.875 12.75 14.399 12.75 13.8125V9.5625C12.75 8.976 13.226 8.5 13.8125 8.5Z" fill="#FFB635"/>
</svg>
