<svg width="33" height="24" viewBox="0 0 33 24" fill="none" xmlns="http://www.w3.org/2000/svg">
<path d="M31.4015 3.01005C30.5261 1.45287 29.5761 1.16644 27.6417 1.05752C25.7094 0.926409 20.8502 0.871948 16.6406 0.871948C12.4229 0.871948 7.56172 0.926409 5.63138 1.0555C3.70104 1.16644 2.74898 1.45085 1.8655 3.01005C0.963866 4.56521 0.499939 7.24389 0.499939 11.9598C0.499939 11.9638 0.499939 11.9659 0.499939 11.9659C0.499939 11.9699 0.499939 11.9719 0.499939 11.9719V11.976C0.499939 16.6717 0.963866 19.3706 1.8655 20.9096C2.74898 22.4668 3.69902 22.7492 5.62936 22.8803C7.56172 22.9932 12.4229 23.0598 16.6406 23.0598C20.8502 23.0598 25.7094 22.9932 27.6437 22.8823C29.5781 22.7512 30.5281 22.4688 31.4036 20.9116C32.3133 19.3726 32.7732 16.6737 32.7732 11.978C32.7732 11.978 32.7732 11.9719 32.7732 11.9679C32.7732 11.9679 32.7732 11.9638 32.7732 11.9618C32.7732 7.24389 32.3133 4.56521 31.4015 3.01005ZM12.6024 18.0171V5.91464L22.6878 11.9659L12.6024 18.0171Z" fill="#F82B50"/>
</svg>
